MoneyFactsID,SwitchingUrl,
CURRENT000015,http://www.bankofchina.com/uk/pbservice/pb1/201109/t20110926_1576336.html,
CURRENT000029,http://www.bankofcyprus.co.uk/personal/current-accounts/online-personal-current-account/,
CURRENT000509,https://boini.bankofireland.com/personal/current-account/basic-cash-account/,
CURRENT000155,https://www.bankofscotland.co.uk/bankaccounts/classic/,
CURRENT000165,https://www.bankofscotland.co.uk/bankaccounts/platinum/default.asp,
CURRENT000161,http://www.bankofscotland.co.uk/bankaccounts/silver/,
CURRENT000112,http://www.barclays.co.uk/basic-current-account,
CURRENT000293,http://www.barclays.co.uk/premier-current-account,
CURRENT000460,http://www.barclays.co.uk/CurrentAccounts/BarclaysBankAccount/P1242557963758,
CURRENT000027,http://www.hoaresbank.co.uk/leaving-money-us,
CURRENT000037,http://online.citi.eu/personal/banking/bankingproducts/currentaccounts/sterling/plus/preapply.htm,
CURRENT000351,http://www.cbonline.co.uk/personal/current-accounts/current-account-control/,
CURRENT000238,http://www.cumberland.co.uk/current-accounts/cumberland-plus,
CURRENT000593,http://www.eccount.com/,
CURRENT000032,http://www1.firstdirect.com/1/2/banking/first-directory,
CURRENT000045,https://firsttrustbank.co.uk/our-products/current-accounts/basic-bank-account,
CURRENT000046,https://firsttrustbank.co.uk/our-products/current-accounts/classic-account,
CURRENT000048,https://firsttrustbank.co.uk/our-products/current-accounts/plus-account,
CURRENT000093,https://www.halifax.co.uk/bankaccounts/current-accounts/current-account/Default.asp,
CURRENT000657,https://www.harrodsbank.co.uk/our-products/personal/current-accounts/personal-high-value-current-account,
CURRENT000662,https://www.harrodsbank.co.uk/our-products/personal/current-accounts/personal-current-account,
CURRENT000143,http://www.hsbc.co.uk/1/2/current-accounts/bank-account,
CURRENT000144,http://www.hsbc.co.uk/1/2/current-accounts/bank-account-pay-monthly,
CURRENT000147,http://www.hsbc.co.uk/1/2/current-accounts/basic-bank-account,
CURRENT000491,http://www.hsbc.co.uk/1/2/hsbc-premier,
CURRENT000677,http://www.hsbc.co.uk/1/2/current-accounts/student-bank-account#/overview,
CURRENT000679,http://www.hsbc.co.uk/1/2/current-accounts/bank-account-pay-monthly?HBEU_dyn_lnk=CurrentAccount_FilterTool_BankAccountPayMonthly_FindOutMore_Button,
CURRENT000167,http://www.lloydsbank.com/current-accounts/classic-account.asp,
CURRENT000154,http://www.lloydsbank.com/current-accounts/added-value-accounts/platinum-account.asp,
CURRENT000223,http://www.lloydsbank.com/current-accounts/added-value-accounts/silver-account.asp,
CURRENT000444,http://bank.marksandspencer.com/banking/current-accounts/premium-current-account/overview/,
CURRENT000597,http://bank.marksandspencer.com/banking/current-accounts/mands-current-account/overview/,
CURRENT000234,https://www.metrobankonline.co.uk/bank-accounts/products/current-account/,
CURRENT000476,https://www.metrobankonline.co.uk/bank-accounts/products/current-account/cash-account/,
CURRENT000205,http://www.nationwide.co.uk/products/current-accounts/flexbasic/features-and-benefits,
CURRENT000656,http://www.nationwide.co.uk/products/current-accounts/flexone/whats-flexone,
CURRENT000487,http://www.nationwide.co.uk/products/current-accounts/flexplus/features-and-benefits,
CURRENT000119,http://personal.natwest.com/personal/current-accounts/compare-current-accounts/select-account.html,
CURRENT000120,http://personal.natwest.com/personal/current-accounts/compare-current-accounts/reward-silver-account.html,
CURRENT000121,http://personal.natwest.com/private/black-benefits.html,
CURRENT000474,http://personal.natwest.com/personal/current-accounts/compare-current-accounts/reward-platinum-account.html,
CURRENT000576,http://www.nandp.co.uk/current-account/gold-start-current-account/,
CURRENT000495,http://www.postoffice.co.uk/standard-account,
CURRENT000125,http://personal.rbs.co.uk/personal/current-accounts/compare-current-accounts/basic-account.html,
CURRENT000126,http://personal.rbs.co.uk/personal/current-accounts/compare-current-accounts/select-account.html,
CURRENT000127,http://personal.rbs.co.uk/personal/current-accounts/compare-current-accounts/reward-silver-account.html,
CURRENT000128,http://personal.rbs.co.uk/private/black-benefits.html,
CURRENT000478,http://personal.rbs.co.uk/personal/current-accounts/manage/platinum.html,
CURRENT000182,http://www.santander.co.uk/uk/current-accounts/everyday-current-account,
CURRENT000254,http://www.santander.co.uk/uk/current-accounts/123-current-account,
CURRENT000193,http://www.santander.co.uk/uk/current-accounts/basic-current-account,
CURRENT000575,http://www.santander.co.uk/uk/current-accounts/choice-current-account,
CURRENT000258,https://www.securetrustbank.com/current-account,
CURRENT000109,http://www.smile.co.uk/currentaccounts,
CURRENT000108,http://www.sbiuk.com/personal-banking/personal/bank-accounts/current-account-overview,
CURRENT000599,http://www.tescobank.com/current-accounts/,
CURRENT000062,http://www.co-operativebank.co.uk/currentaccounts,
CURRENT000063,http://www.co-operativebank.co.uk/currentaccounts/cap,
CURRENT000574,https://www.thinkmoney.co.uk/account/,
CURRENT000528,http://www.tsb.co.uk/current-accounts/cash-account/,
CURRENT000537,http://www.tsb.co.uk/current-accounts/classic-account/,
CURRENT000547,http://www.tsb.co.uk/added-value-accounts/platinum-current-account/,
CURRENT000559,http://www.tsb.co.uk/added-value-accounts/silver-current-account/,
CURRENT000585,http://www.tsb.co.uk/current-accounts/classic-plus-account/,
CURRENT000052,http://digital.ulsterbank.co.uk/personal/current-accounts/current-account.html,
CURRENT000643,http://uk.virginmoney.com/virgin/current-account/essential-current-account.jsp,
CURRENT000353,http://www.ybonline.co.uk/personal/current-accounts/current-account-control/,
CURRENT000607,http://www.ybs.co.uk/savings/easy-access/cash-transactor.html,
