MoneyFacts CompNo,Company,Price-norm,Trust-norm,Personal-norm,Total,savingsAccountListings,
4500,Allied Irish Bank (GB),,57.8,99,,http://personal.aib.ie/our-products/savings-and-deposits,
5705,Bank of Ireland UK,,56.3,96,,https://boini.bankofireland.com/personal/savings/,
5750,Bank of Scotland,,57.1,88,,https://www.bankofscotland.co.uk/savings/accounts/
10350,Clydesdale Bank,,56.5,84,,http://www.cbonline.co.uk/personal/savings/everyday-instant-access-accounts/compare/,
13300,first direct,,57.4,91,,http://www1.firstdirect.com/1/2/savings/compare-savings-accounts,
15700,Halifax,,57.1,88,,http://www.halifax.co.uk/savings/accounts/,
15350,HSBC,,57.4,91,,http://www.hsbc.co.uk/1/2/savings-accounts,
18800,Lloyds Bank,,57.4,95,,https://www.lloydsbank.com/savings.asp#all-savings-accounts,
19955,M&S Bank,,54.8,100,,http://bank.marksandspencer.com/save-invest/overview/?WT.ac=MASM_HPL_S,
20465,Metro Bank,,57.2,99,,https://www.metrobankonline.co.uk/savings/needs-based/my-savings-options/,
21650,Nationwide BS,,57.2,96,,http://www.nationwide.co.uk/products/savings/our-savings-accounts/all-savings-accounts,
21820,NatWest,,56.4,94,,http://personal.natwest.com/personal/savings/compare-savings-accounts-new.html,
22420,Norwich & Peterborough BS,,57.3,91,,http://www.nandp.co.uk/savings/,
24900,Royal Bank of Scotland,,57.7,93,,http://personal.rbs.co.uk/personal/savings/compare-savings-accounts.html,
25750,Sainsbury's Bank,,55.9,87,,https://www.sainsburysbank.co.uk/savings/sav_savings_zone,
25780,Santander,,56.5,96,,http://www.santander.co.uk/uk/savings,
27400,smile,,56.3,99,,http://www.smile.co.uk/savings,
28725,Tesco Bank,,52.7,99,,http://www.tescobank.com/savings/,
10520,The Co-operative Bank,,56.3,99,,http://www.co-operativebank.co.uk/savings?int_cmp=topnav_our-products_savings,
28410,TSB,,55.8,95,,http://www.tsb.co.uk/savings/,
29600,Ulster Bank,,57.5,98,,http://digital.ulsterbank.co.uk/personal/savings.html,
30260,Virgin Money,,57.4,100,,http://uk.virginmoney.com/virgin/savings/,
31000,Yorkshire Bank,,57.3,91,,http://www.ybonline.co.uk/personal/savings/everyday-instant-access-accounts/compare/,
31050,Yorkshire BS,,57.3,91,,http://www.ybonline.co.uk/personal/savings/everyday-instant-access-accounts/compare/,
