Name,Home page URL,Address Line 1,Address Line 2,Town,City,County,Postcode,Telephone Number 1 Description,Telephone Number 1,Fax,Main Contact Email
Adur District Council,http://www.adur-worthing.gov.uk/,Adur Civic Centre,Ham Road,Shoreham-by-Sea,,West Sussex,BN43 6PR,Main switchboard,01273 263 000,01273 263 224,enquiries@adur-worthing.gov.uk
Allerdale Borough Council,http://www.allerdale.gov.uk,Allerdale House,,Workington,,Cumbria,CA14 3YJ,,01900 702 702,01900 702 507,enquiries@allerdale.gov.uk
Amber Valley Borough Council,http://www.ambervalley.gov.uk/,Town Hall,Market Place,Ripley,,Derbyshire,DE5 3BT,General enquires,01773 570 222,01773 841 616,
Arun District Council,http://www.arun.gov.uk/,Maltavers Road,,Littlehampton,,West Sussex,BN17 5LF,,01903 737 500,01903 730 442,info@arun.gov.uk
Ashfield District Council,http://www.ashfield-dc.gov.uk/,Council Offices,Urban Road,Kirkby in Ashfield,,Nottinghamshire,NG17 8DA,,01623 450 000,01623 457 585,info@ashfield-dc.gov.uk
Ashford Borough Council,http://www.ashford.gov.uk/,Civic Centre,Tannery Lane,Ashford,,Kent,TN23 1PL,Call centre,01233 331 111,,customer.care@ashford.gov.uk
Aylesbury Vale District Council,http://www.aylesburyvaledc.gov.uk/,Customer Service Centre,66 High Street,Aylesbury,,Buckinghamshire,HP20 1SD,General enquiries,01296 585 858,01296 585 640,custserv@aylesburyvaledc.gov.uk
Babergh District Council,http://www.babergh.gov.uk,Corks Lane,,Hadleigh,,Suffolk,IP7 6SJ,General enquiries,01473 826 622,01473 823 594,enquiries@babergh-south-suffolk.gov.uk
London Borough of Barking and Dagenham,https://www.lbbd.gov.uk/,Barking Town Hall,Town Hall Square,Barking,,,IG11 7LU,Contact centre,020 8215 3000,,3000direct@lbbd.gov.uk
London Borough of Barnet,http://www.barnet.gov.uk/,North London Business Park,Oakleigh Road South,London,,,N11 1NP,,020 8359 2000,020 8359 4156,first.contact@barnet.gov.uk
Barnsley Metropolitan Borough Council,http://www.barnsley.gov.uk/,PO Box 634,,Barnsley,,South Yorkshire,S70 9GG,Main switchboard,01226 770770,01226 773099,online@barnsley.gov.uk
Basildon Borough Council,http://www.basildon.gov.uk/,The Basildon Centre,St. Martin s Square,Basildon,,Essex,SS14 1DL,Main switchboard,01268 533 333,01268 294 350,
Basingstoke and Deane Borough Council,http://www.basingstoke.gov.uk/,Civic Offices,London Road,Basingstoke,,Hampshire,RG21 4AH,Contact centre,01256 844 844,01256 845 200,customer.service@basingstoke.gov.uk
Bassetlaw District Council,http://www.bassetlaw.gov.uk/,Queen s Buildings,Potter Street,Worksop,,Nottinghamshire,S80 2AH,General enquiries,01909 533 533,01909 501 758,customer.services@bassetlaw.gov.uk
Bath and North East Somerset Council,http://www.bathnes.gov.uk/,The Guildhall,High Street,,Bath,Bath & North East Somerset,BA1 5AW,Switchboard,01225 477 000,01225 477 809,councilconnect@bathnes.gov.uk
Bedford Council (Unitary),http://www.bedford.gov.uk/,Bedford Borough Council,Borough Hall,Cauldwell Street,Bedford.,,MK42 9AP,,01234 267422,01234 221606,centralp@bedford.gov.uk
London Borough of Bexley,http://www.bexley.gov.uk/,Civic Offices,2 Watling Street,Bexleyheath,,Kent,DA6 7AT,Switchboard,020 8303 7777,020 8249 6796,customer.services@bexley.gov.uk
Birmingham City Council,http://www.birmingham.gov.uk/,Council House,Victoria Square,,Birmingham,,B1 1BB,General enquiries,0121 303 1111,,contact@birmingham.gov.uk
Blaby District Council,http://www.blaby.gov.uk/,Council Offices,Desford Road,Narborough,Leicester,Leicestershire,LE19 2EP,Switchboard,01162 750 555,0116 275 0368,customer.services@blaby.gov.uk
Blackburn with Darwen Borough Council,http://www.blackburn.gov.uk/,King William Street,Town Hall,Blackburn,,Lancashire,BB1 7DY,General enquiries,01254 585 585,,info@blackburn.gov.uk
Blackpool Borough Council,http://www.blackpool.gov.uk,PO Box 50,Town Hall,Blackpool,,Lancashire,FY1 1AD,Switchboard,01253 477 477,,customer.first@blackpool.gov.uk
Bolsover District Council,http://www.bolsover.gov.uk/,Sherwood Lodge,Oxcroft Lane,Bolsover,,Derbyshire,S44 6NF,Switchboard,01246 242 424,01246 242 423,enquiries@bolsover.gov.uk
Bolton Metropolitan Borough Council,http://www.bolton.gov.uk/,Town Hall,Victoria Square,Bolton,,Lancashire,BL1 1RU,Customer services,01204 333 333,,bolton@bolton.gov.uk
Boston Borough Council,http://www.boston.gov.uk/,Municipal Buildings,West Street,Boston,,Lincolnshire,PE21 8QR,,01205 314 200,01205 364 604,info@boston.gov.uk
Bournemouth Borough Council,http://www.bournemouth.gov.uk/,Town Hall,Bourne Avenue,Bournemouth,,Dorset,BH2 6DY,Switchboard,01202 451 451,01202 451 000,enquiries@bournemouth.gov.uk
Bracknell Forest Council,http://www.bracknell-forest.gov.uk/,Time Square,Market Street,Bracknell,,Berkshire,RG12 1JD,Customer services,01344 352 000,,customer.services@bracknell-forest.gov.uk
Bradford Metropolitan District Council,http://www.bradford.gov.uk/,City Hall,Centenary Square,Bradford,,,BD1 1HY,Switchboard,01274 432111,01274 740 456,
Braintree District Council,http://www.braintree.gov.uk/,Causeway House,Bocking End,Braintree,,Essex,CM7 9HB,Customer Service Centre,01376 552 525,01376 552 626,csc@braintree.gov.uk
Breckland District Council,http://www.breckland.gov.uk/,Elizabeth House,Walpole Loke,Dereham,,Norfolk,NR19 1EE,,01362 656 870,,contactus@breckland.gov.uk
London Borough of Brent,http://www.brent.gov.uk/,Town Hall,Forty Lane,Wembley,,,HA9 9HD,,020 8937 1234,020 8937 1989,customer.services@brent.gov.uk
Brentwood Borough Council,http://www.brentwood.gov.uk/,Town Hall,Ingrave Road,Brentwood,,Essex,CM15 8AY,,01277 312 500,01277 312 743,enquiries@brentwood.gov.uk
Brighton and Hove City Council,http://www.brighton-hove.gov.uk/,Kings House,Grand Avenue,Hove,,East Sussex,BN3 2LS,,01273 290000,,info@brighton-hove.gov.uk
Broadland District Council,http://www.broadland.gov.uk/,Thorpe Lodge,1 Yarmouth Road,Thorpe St Andrew,Norwich,Norfolk,NR7 0DU,General enquiries,01603 431133,,reception@broadland.gov.uk
London Borough of Bromley,http://www.bromley.gov.uk/,Civic Centre,Stockwell Close,Bromley,,,BR1 3UH,Main switchboard,020 8464 3333,020 8313 4707,csc@bromley.gov.uk
Bromsgrove District Council,http://www.bromsgrove.gov.uk/,The Council House,Burcot Lane,Bromsgrove,,Worcestershire,B60 1AA,Switchboard,01527 873 232,01527 881 414,bromsgrovecsc@bromsgrove.gov.uk
Borough of Broxbourne,http://www.broxbourne.gov.uk/,Borough Offices,Bishops' College,Cheshunt,,Hertfordshire,EN8 9XQ,General enquiries,01992 785 555,,enquiries@broxbourne.gov.uk
Broxtowe Borough Council,http://www.broxtowe.gov.uk/,Town Hall,Foster Avenue,Beeston,Nottingham,Nottinghamshire,NG9 1AB,,01159 177 777,01159 173 030,customerservices@broxtowe.gov.uk
Buckinghamshire County Council,http://www.buckscc.gov.uk/,County Hall,Walton Street,Aylesbury,,,HP20 1UA,Reception,0845 370 8090,,customerservices@buckscc.gov.uk
Burnley Borough Council,http://www.burnley.gov.uk/,Town Hall,,Burnley,,Lancashire,BB11 9SA,General enquiries,01282 425011,,enquiries@burnley.gov.uk
Calderdale Metropolitan Borough Council,http://www.calderdale.gov.uk/,Town Hall,Crossley Street,Halifax,,,HX1 1UJ,General enquiries,01422 288001,,customer.first@calderdale.gov.uk
Cambridge City Council,https://www.cambridge.gov.uk/,The Guildhall,,,Cambridge,,CB2 3QJ,Customer services,01223 457000,,enquiries@cambridge.gov.uk
Cambridgeshire County Council,http://www.cambridgeshire.gov.uk,Shire Hall,Castle Hill,,Cambridge,Cambridgeshire,CB3 0AP,General enquiries,0345 045 5200,01480 376748,info@cambridgeshire.gov.uk
London Borough of Camden,http://www.camden.gov.uk/,Camden Town Hall,Judd Street,London,,,WC1H 9JE,Switchboard (includes 24 hour emergency cover),020 7974 4444,020 7974 6209,info@camden.gov.uk
Cannock Chase District Council,http://www.cannockchasedc.gov.uk/,PO Box 28,Beecroft Road,Cannock,,Staffordshire,WS11 1BG,,01543 462 621,01543 462 317,customerservices@cannockchasedc.gov.uk
Canterbury City Council,https://www.canterbury.gov.uk/,Military Road,,Canterbury,,Kent,CT1 1YW,,01227 862 000,01227 862 020,customer.services@canterbury.gov.uk
Carlisle City Council,http://www.carlisle.gov.uk,Civic Centre,Rickergate,,Carlisle,,CA3 8QG,Customer Services,01228 817200,,customerservices@carlisle.gov.uk
Castle Point Borough Council,http://www.castlepoint.gov.uk/,Kiln Road,Thundersley,Benfleet,,Essex,SS7 1TF,Switchboard,01268 882 200,01268 882 455,info@castlepoint.gov.uk
Charnwood Borough Council,http://www.charnwood.gov.uk/,Council Offices,Southfields Road,Loughborough,,Leicestershire,LE11 2TN,Switchboard,01509 263151,01509 219723,information@charnwood.gov.uk
Chelmsford City Council,http://www.chelmsford.gov.uk/,Civic Centre,Duke Street,Chelmsford,,Essex,CM1 1JE,Switchboard,01245 606 606,01245 606 693,customerservicesteam@chelmsford.gov.uk
Cheltenham Borough Council,http://www.cheltenham.gov.uk/,Municipal Offices,Promenade,Cheltenham,,Gloucestershire,GL50 9SA,Switchboard,01242 262 626,01242 227 131,enquiries@cheltenham.gov.uk
Cherwell District Council,http://www.cherwell-dc.gov.uk/,Bodicote House,Bodicote,Banbury,,Oxfordshire,OX15 4AA,General enquiries,01295 252 535,01295 270 028,
Cheshire East Council (Unitary),http://www.cheshireeast.gov.uk/,Westfields,Middlewich Road,Sandbach,Cheshire,,CW11 1HZ,Customer service centre,0300 123 55 00,,info@cheshireeast.gov.uk
Chesterfield Borough Council,http://www.chesterfield.gov.uk/site/default.asp,Town Hall,Rose Hill,Chesterfield,,Derbyshire,S40 1LP,Switchboard,01246 345 345,01246 345 252,
Chichester District Council,http://www.chichester.gov.uk/,East Pallant House,1 East Pallant,Chichester,,West Sussex,PO19 1TY,Switchboard,01243 785 166,01243 776 766,contact@chichester.gov.uk
Chiltern District Council,http://www.chiltern.gov.uk/,King George V Road,,Amersham,,Buckinghamshire,HP6 5AW,,01494 729 000,,info@chiltern.gov.uk
Chorley Council,http://www.chorley.gov.uk/,Civic Offices,Union Street,Chorley,,Lancashire,PR7 1AL,Customer Services,01257 515 151,01257 515 150,contact@chorley.gov.uk
Christchurch Borough Council,http://www.dorsetforyou.com/,Civic Offices,Bridge Street,Christchurch,,Dorset,BH23 1AZ,Customer services,01202 495 000,01202 495 107,customerservices@christchurch.gov.uk
Colchester Borough Council,http://www.colchester.gov.uk/,Rowan House,33 Sheepen Road,Colchester,,Essex,CO3 3WG,Switchboard,01206 282 222,01206 282 288,customer.services@colchester.gov.uk
Copeland Borough Council,http://www.copeland.gov.uk,The Copeland Centre,Catherine Street,Whitehaven,,Cumbria,CA28 7SJ,,0845 054 8600,,info@copelandbc.gov.uk
Corby Borough Council,http://www.corby.gov.uk/,The Corby Cube,George Street,Corby,,Northants,NN17 1QG,Switchboard,01536 464 000,,customer.first@corby.gov.uk
Cornwall Council (Unitary),http://www.cornwall.gov.uk/,County Hall,Treyew Road,Truro,,Cornwall,TR1 3AY,Switchboard (24 hours),0300 1234 100,,customerservices@cornwall.gov.uk
City of London,http://www.cityoflondon.gov.uk/,PO Box 270,Guildhall,London,,,EC2P 2EJ,Switchboard,020 7606 3030,,pro@cityoflondon.gov.uk
Cotswold District Council,http://www.cotswold.gov.uk/,Trinity Road,,Cirencester,,Gloucestershire,GL7 1PX,,01285 623 000,,cdc@cotswold.gov.uk
Coventry City Council,http://www.coventry.gov.uk/,Council House,Earl Street,Coventry,,,CV1 5RR,General enquiries,024 7683 3333,,customer.services@coventry.gov.uk
Craven District Council,http://www.cravendc.gov.uk/,Belle Vue Square,Broughton Road,Skipton,,North Yorkshire,BD23 1FJ,,01756 700 600,,contactus@cravendc.gov.uk
Crawley Borough Council,http://www.crawley.gov.uk/,Town Hall,The Boulevard,Crawley,,West Sussex,RH10 1UZ,,01293 438 000,01293 511 803,comments@crawley.gov.uk
London Borough of Croydon,http://www.croydon.gov.uk,Taberner House,Park Lane,Croydon,,,CR9 3JS,General enquiries,020 8726 6000,020 8688 6185,contact.thecouncil@croydon.gov.uk
Cumbria County Council,http://www.cumbria.gov.uk/,Headquarters,The Courts,Carlisle,,Cumbria,CA3 8NA,,01228 606 060,01228 606 327,information@cumbriacc.gov.uk
Dacorum Council,http://www.dacorum.gov.uk/,Civic Centre,Marlowes,Hemel Hempstead,,Hertfordshire,HP1 1HH,Switchboard,01442 228 000,,feedback@dacorum.gov.uk
Darlington Borough Council,http://www.darlington.gov.uk/,Town Hall,Feethams,Darlington,,County Durham,DL1 5QT,Customer service,01325 380651,,customerservices@darlington.gov.uk
Dartford Borough Council,http://www.dartford.gov.uk/,Civic Centre,Home Gardens,Dartford,,Kent,DA1 1DR,Customer services,01322 343 434,01322 343 422,customer.services@dartford.gov.uk
Daventry District Council,http://www.daventrydc.gov.uk,Lodge Road,,Daventry,,Northants,NN11 4FP,,01327 871 100,01327 300 011,comments@daventrydc.gov.uk
Derby City Council,http://www.derby.gov.uk/,The Council House,Corporation Street,,Derby,Derbyshire,DE1 2FS,General enquiries,01332 293 111,01332 643 549,customer.services@derby.gov.uk
Derbyshire County Council,http://www.derbyshire.gov.uk/,County Hall,,Matlock,,Derbyshire,DE4 3AG,Call Derbyshire,08456 058 058,01629 533295,contact.centre@derbyshire.gov.uk
Derbyshire Dales District Council,http://www.derbyshiredales.gov.uk,Town Hall,Bank Road,Matlock,,Derbyshire,DE4 3NN,General enquiries,01629 761 100,,enquiries@derbyshiredales.gov.uk
Devon County Council,http://www.devon.gov.uk/,County Hall,Topsham Road,Exeter,,Devon,EX2 4QD,General enquiries,0845 155 1015,0845 155 1003,customer@devon.gov.uk
Doncaster Metropolitan Borough Council,http://www.doncaster.gov.uk/,Civic Office,Waterdale,Doncaster,,South Yorkshire,DN1 3BU,Customer services,01302 736 000,,general.enquiries@doncaster.gov.uk
Dorset County Council,http://www.dorsetforyou.com/,County Hall,Colliton Park,Dorchester,,Dorset,DT1 1XJ,,01305 251 000,,dorsetdirect@dorsetcc.gov.uk
Dover District Council,http://www.dover.gov.uk/,White Cliffs Business Park,,Dover,,Kent,CT16 3PJ,Customer services,01304 821 199,01304 872 444,customerservices@dover.gov.uk
Durham County Council,http://www.durham.gov.uk/,County Hall,,,Durham,County Durham,DH1 5UL,General Enquiries,03000 26 0000,,help@durham.gov.uk
East Cambridgeshire District Council,http://www.eastcambs.gov.uk/,The Grange,Nutholt Lane,Ely,,Cambridgeshire,CB7 4EE,Customer services,01353 665555,01353 665240,customerservices@eastcambs.gov.uk
East Devon District Council,http://eastdevon.gov.uk,Council Offices,Knowle,Sidmouth,,Devon,EX10 8HL,Switchboard,01395 516 551,01395 517 507,csc@eastdevon.gov.uk
East Dorset District Council,http://www.dorsetforyou.com/,Council Offices,Furzehill,Wimborne,,Dorset,BH21 4HN,,01202 886 201,01202 841 390,
East Hampshire District Council,http://www.easthants.gov.uk/,Penns Place,,Petersfield,,Hampshire,GU31 4EX,,01730 266 551,,info@easthants.gov.uk
East Hertfordshire District Council,http://www.eastherts.gov.uk/,The Causeway,,Bishops Stortford,,Hertfordshire,CM23 2EN,,01279 655 261,01279 502 106,enquiries@eastherts.gov.uk
East Lindsey District Council,http://www.e-lindsey.gov.uk/,Tedder Hall,Manby Park,Louth,,Lincolnshire,LN11 8UP,,01507 601 111,01507 600 206,customerservices@e-lindsey.gov.uk
East Northamptonshire Council,http://www.east-northamptonshire.gov.uk/,East Northamptonshire House,Cedar Drive,Thrapston,,Northants,NN14 4LZ,,01832 742 000,01832 734 839,info@east-northamptonshire.gov.uk
East Riding of Yorkshire Council,http://www.eastriding.gov.uk/,County Hall,,Beverley,,,HU17 9BA,Customer services,01482 393 939,01482 393 375,customer.services@eastriding.gov.uk
East Staffordshire Borough Council,http://www.eaststaffsbc.gov.uk/,Town Hall,,Burton upon Trent,,Staffordshire,DE14 2EB,,01283 508 000,01283 535 412,reception@eaststaffsbc.gov.uk
East Sussex County Council,http://www.eastsussex.gov.uk/,County Hall,St Anne s Crescent,Lewes,,East Sussex,BN7 1SG,General enquiries,0345 60 80 190,01273 481 261,
Eastbourne Borough Council,http://www.eastbourne.gov.uk/,Town Hall,Grove Road,Eastbourne,,,BN21 4UG,Customer contact centre,01323 410 000,01323 415 999,enquiries@eastbourne.gov.uk
Eastleigh Borough Council,http://www.eastleigh.gov.uk/,Civic Offices,Leigh Road,Eastleigh,,Hampshire,SO50 9YN,,023 8068 8000,023 8064 3952,direct@eastleigh.gov.uk
Eden District Council,http://www.eden.gov.uk,Town Hall,,Penrith,,Cumbria,CA11 7QF,Switchboard,01768 817 817,01768 890 470,customer.services@eden.gov.uk
London Borough of Enfield,http://www.enfield.gov.uk/,Civic Centre,Silver Street,Enfield,,,EN1 3XY,,020 8379 1001,020 8379 4453,
Epping Forest District Council,http://www.eppingforestdc.gov.uk/,Civic Offices,High Street,Epping,,Essex,CM16 4BZ,Switchboard,01992 564000,,contactus@eppingforestdc.gov.uk
Epsom and Ewell Borough Council,http://www.epsom-ewell.gov.uk/,Town Hall,The Parade,Epsom,,Surrey,KT18 5BY,,01372 732 000,,contactus@epsom-ewell.gov.uk
Erewash Borough Council,http://www.erewash.gov.uk/,Town Hall,Wharncliffe Road,Ilkeston,,Derbyshire,DE7 5RP,Contact centre,0115 907 2244,,enquiries@erewash.gov.uk
Essex County Council,http://www.essex.gov.uk/Pages/Default.aspx,County Hall,Market Road,Chelmsford,,Essex,CM1 1QH,General enquiries,0845 743 0430,,
Exeter City Council,http://www.exeter.gov.uk/,Civic Centre,Paris Street,Exeter,,Devon,EX1 1JN,,01392 277 888,01392 265 265,
Fareham Borough Council,http://www.fareham.gov.uk/,Civic Offices,Civic Way,Fareham,,Hampshire,PO16 7AZ,Customer services,01329 236 100,01329 821 770,customerservices@fareham.gov.uk
Fenland District Council,http://www.fenland.gov.uk/,Fenland Hall,County Road,March,,Cambridgeshire,PE15 8NQ,Contact centre,01354 654 321,,info@fenland.gov.uk
Forest Heath District Council,http://www.forest-heath.gov.uk/,District Offices,College Heath Road,Bury St Edmunds,,Suffolk,IP28 7EY,,01638 719 000,01638 716 493,info@forest-heath.gov.uk
Forest of Dean District Council,http://www.fdean.gov.uk/,Council Offices,High Street,Coleford,,Gloucestershire,GL16 8HG,Switchboard,01594 810 000,,council@fdean.gov.uk
Fylde Borough Council,http://www.fylde.gov.uk/,Town Hall,St Annes Road West,St Annes,,Lancashire,FY8 1LW,Customer services,01253 658 658,01253 713 113,listening@fylde.gov.uk
Gedling Borough Council,http://www.gedling.gov.uk/,Civic Centre,Arnot Hill Park,Nottingham,,Nottinghamshire,NG5 6LU,Switchboard,0115 901 3901,01159 013 921,webenquiries@gedling.gov.uk
Gloucester City Council,http://www.gloucester.gov.uk/,Herbert Warehouse,The Docks,,Gloucester,Gloucestershire,GL1 2EQ,General enquiries,01452 396396,,heretohelp@gloucester.gov.uk
Gloucestershire County Council,http://www.gloucestershire.gov.uk/,Shire Hall,Westgate Street,,Gloucester,Gloucestershire,GL1 2TG,Switchboard,01452 425 000,,customerservices@gloucestershire.gov.uk
Gosport Borough Council,http://www.gosport.gov.uk/,Town Hall,High Street,Gosport,,Hampshire,PO12 1EB,Customer services,023 9258 4242,,enquiries@gosport.gov.uk
Gravesham Borough Council,http://www.gravesham.gov.uk/,Civic Centre,Windmill Street,Gravesend,,Kent,DA12 1AU,Customer services,01474 337 000,01474 337 680,info@gravesham.gov.uk
Great Yarmouth Borough Council,http://www.great-yarmouth.gov.uk,Town Hall,Hall Plain,Great Yarmouth,,Norfolk,NR30 2QF,General enquiries,01493 856 100,01493 846 285,enquiries@great-yarmouth.gov.uk
Royal Borough of Greenwich,http://www.royalgreenwich.gov.uk/,The Woolwich Centre,Wellington Street,Woolwich,London,,SE18 6HQ,Switchboard &#40 24 hours&#41,020 8854 8888,,contact-centre@royalgreenwich.gov.uk
Guildford Borough Council,http://www.guildford.gov.uk/,Millmead House,Millmead,Guildford,,Surrey,GU2 4BB,Customer Service Centre,01483 50 50 50,01483 444 444,customerservices@guildford.gov.uk
London Borough of Hackney,http://www.hackney.gov.uk/,Town Hall,Mare Street,London,,,E8 1EA,Hackney Contact Centre,020 8356 3000,020 8356 3104,info@hackney.gov.uk
Halton Borough Council,http://www.halton.gov.uk/,Municipal Building,Kingsway,Widnes,,Cheshire,WA8 7QF,Contact centre/out of hours emergency,0303 333 4300,01514 717 301,hdl-borough@halton.gov.uk
London Borough of Hammersmith & Fulham,http://www.lbhf.gov.uk/,Town Hall,King Street,Hammersmith,,,W6 9JU,Switchboard,020 8748 3020,,
Hampshire County Council,http://www.hants.gov.uk/,The Castle,,Winchester,,Hampshire,SO23 8ZB,General enquiries,0300 555 1375,,info@hants.gov.uk
Harborough District Council,http://www.harborough.gov.uk/,Council Offices,Adam and Eve Street,Market Harborough,,Leicestershire,LE16 7AG,,01858 828 282,01858 821 000,customer.services@harborough.gov.uk
London Borough of Haringey,http://www.haringey.gov.uk/,Civic Centre,High Road,London,,,N22 8LE,Customer Services,020 8489 1000,,customer.services@haringey.gov.uk
Harlow Council,http://www.harlow.gov.uk/,Civic Centre,Water Gardens,Harlow,,Essex,CM20 1WG,Contact Harlow,01279 446655,,contact@harlow.gov.uk
Harrogate Borough Council,http://www.harrogate.gov.uk/,Council Offices,Crescent Gardens,Harrogate,,North Yorkshire,HG1 2SG,Customer services,01423 500 600,01423 556 100,customerservices@harrogate.gov.uk
London Borough of Harrow,http://www.harrow.gov.uk,Civic Centre,Station Road,Harrow,,Middlesex,HA1 2XF,,020 8863 5611,,info@harrow.gov.uk
Hart District Council,http://www.hart.gov.uk,Civic Offices,Harlington Way,Fleet,,Hants,GU51 4AE,Main Switchboard Number,01252 622122,01252 626886,enquiries@hart.gov.uk
Hartlepool Borough Council,http://www.hartlepool.gov.uk,Civic Centre,Victoria Road,Hartlepool,,,TS24 8AY,,01429 266522,,customer.service@hartlepool.gov.uk
Hastings Borough Council,http://www.hastings.gov.uk/,Town Hall,Queens Road,Hastings,,East Sussex,TN34 1QR,Switchboard,0845 274 1066,,hbc@hastings.gov.uk
Havant Borough Council,http://www.havant.gov.uk/,Civic Centre,Civic Centre Road,Havant,,Hampshire,PO9 2AX,Switchboard,023 9247 4174,023 9248 0263,customer.services@havant.gov.uk
London Borough of Havering,http://www.havering.gov.uk/Pages/index.aspx,Town Hall,Main Road,Romford,,,RM1 3BB,Switchboard,01708 434 343,,info@havering.gov.uk
Herefordshire Council,https://www.herefordshire.gov.uk/,35 Hafod Road,,Brockington,,Herefordshire,HR1 1SH,Switchboard,01432 260 000,,info@herefordshire.gov.uk
Hertfordshire County Council,http://www.hertsdirect.org/,County Hall,Pegs Lane,Hertford,,,SG13 8DQ,Customer service centre/General enquiries,0300 123 4040,,hertsdirect@hertfordshire.gov.uk
Hertsmere Borough Council,http://www.hertsmere.gov.uk/,Civic Offices,Elstree Way,Borehamwood,,Hertfordshire,WD6 1WA,General enquiries,020 8207 2277,,customer.services@hertsmere.gov.uk
High Peak Borough Council,http://www.highpeak.gov.uk/,Town Hall,,Buxton,,Derbyshire,SK17 6EL,Customer services,0845 129 7777,01298 27639,customer-services@highpeak.gov.uk
London Borough of Hillingdon,http://www.hillingdon.gov.uk/,Civic Centre,High Street,Uxbridge,,Middlesex,UB8 1UW,Switchboard,01895 250 111,01895 273 636,contactcentre1@hillingdon.gov.uk
Hinckley and Bosworth Borough Council,http://www.hinckley-bosworth.gov.uk/,Hinckley Hub,Rugby Road,Hinckley,,Leicestershire,LE10 0FR,Customer services,01455 238 141,01455 251 172,customer.services@hinckley-bosworth.gov.uk
Horsham District Council,http://www.horsham.gov.uk/,Park North,North Street,Horsham,,West Sussex,RH12 1RL,01403 215100,01403 215 100,01403 262 985,contact@horsham.gov.uk
London Borough of Hounslow,http://www.hounslow.gov.uk/,Civic Centre,Lampton Road,Hounslow,,London,TW3 4DN,Customer services,020 8583 2000,,customerservice@hounslow.gov.uk
Huntingdonshire District Council,http://www.huntingdonshire.gov.uk,Pathfinder House,St Marys Street,Huntingdon,,Cambridgeshire,PE29 3TN,Main reception,01480 388 388,01480 388 09,mail@huntingdonshire.gov.uk
Hyndburn Borough Council,http://www.hyndburnbc.gov.uk,Scaitcliffe House,Ormerod Street,Accrington,,Lancashire,BB5 0PF,,01254 388 111,01254 392 597,enquiries@hyndburrnbc.gov.uk
Ipswich Borough Council,https://www.ipswich.gov.uk/,Grafton House,15-17 Russell Road,Ipswich,,Suffolk,IP1 2DE,General enquiries,01473 432 000,,enquiry@ipswich.gov.uk
Isle of Wight Council,http://www.iwight.com,County Hall,High Street,Newport,,Isle of Wight,PO30 1UD,Customer services,01983 821 000,01983 823 333,customer.services@iow.gov.uk
Isles of Scilly,http://www.scilly.gov.uk,Town Hall,,St Marys,,Isles of Scilly,TR21 0LW,,01720 424000,01720 424017,enquiries@scilly.gov.uk
London Borough of Islington,http://www.islington.gov.uk/Pages/default.aspx,222 Upper Street,,London,,,N1 1XR,Contact centre,020 7527 2000,020 7527 5001,contact@islington.gov.uk
Royal Borough of Kensington and Chelsea,http://www.rbkc.gov.uk/,The Town Hall,Hornton Street,London,,,W8 7NX,,020 7361 3000,020 7938 1445,RBKCcustomerservices@rbkc.gov.uk
Kent County Council,http://www.kent.gov.uk/,County Hall,,Maidstone,,Kent,ME14 1XQ,Customer services/out of hours emergency,03000 41 41 41,,county.hall@kent.gov.uk
Kettering Borough Council,http://www.kettering.gov.uk/,Municipal Offices,Bowling Green Road,Kettering,,Northamptonshire,NN15 7QX,Customer Services,01536 410 333,01536 410 795,customerservices@kettering.gov.uk
King's Lynn and West Norfolk Borough Council,http://www.west-norfolk.gov.uk,King's Court,Chapel Street,King's Lynn,,Norfolk,PE30 1EX,Council information centre,01553 616 200,01553 691 663,contact@west-norfolk.gov.uk
Kingston-upon-Hull City Council,http://www.hullcc.gov.uk/,The Guildhall,Alfred Gelder Street,Hull,,,HU1 2AA,Customer services,01482 300 300,,info@hullcc.gov.uk
Kirklees Council,http://www.kirklees.gov.uk/,Civic Centre 3,Market Street,Huddersfield,,,HD1 1WG,Switchboard,01484 221 000,,customer.enquiries@kirklees.gov.uk
Knowsley Metropolitan Borough Council,http://www.knowsley.gov.uk/,Municipal Buildings,Cherryfield Drive,Knowsley,,,L32 1TX,General enquiries,0151 489 6000,,customerservices@knowsley.gov.uk
London Borough of Lambeth,http://www.lambeth.gov.uk/,Town Hall,Brixton Hill,London,,,SW2 1RW,General enquiries,020 7926 1000,,infoservice@lambeth.gov.uk
Lancashire County Council,http://www.lancashire.gov.uk/,County Hall,Fishergate,,Preston,Lancashire,PR1 0LD,General enquires,0300 123 6701,01772 536 199,enquiries@lancashire.gov.uk
Lancaster City Council,http://www.lancaster.gov.uk/,Town Hall,Dalton Square,,Lancaster,Lancashire,LA1 1PJ,,01524 582000,,info@lancaster.gov.uk
Leeds City Council,http://www.leeds.gov.uk/,Civic Hall,Calverley Street,Leeds,,,LS1 1UR,General enquiries,0113 222 4444,,general.enquiries@leeds.gov.uk
Leicester City Council,http://www.leicester.gov.uk/,City Hall,115 Charles Street,,Leicester,,LE1 1FZ,Customer services,0116 454 1000,0116 255 9289,customer.services@leicester.gov.uk
Leicestershire County Council,http://www.leics.gov.uk/,County Hall,Glenfield,Leicester,,,LE3 8RA,,01162 323 232,,information@leics.gov.uk
Lewes District Council,http://www.lewes.gov.uk/,32 High Street,,Lewes,,East Sussex,BN7 2LX,Switchboard,01273 471 600,01273 484 146,lewesdc@lewes.gov.uk
London Borough of Lewisham,http://www.lewisham.gov.uk/,Town Hall,Catford,London,,,SE6 4RU,Switchboard (24 hours),020 8314 6000,,
Lichfield District Council,https://www.lichfielddc.gov.uk/,District Council House,Frog Lane,Lichfield,,Staffordshire,WS13 6YY,,01543 308 000,,enquiries@lichfielddc.gov.uk
City of Lincoln Council,http://www.lincoln.gov.uk/,City Hall,Beaumont Fee,Lincoln,,Lincolnshire,LN1 1DD,General enquiries,01522 881 188,,customer.services@lincoln.gov.uk
Lincolnshire County Council,http://www.lincolnshire.gov.uk/,Lincolnshire County Council,"County Offices, Newland",Lincoln,,Lincolnshire,LN1 1YL,,01522 552 222,01522 516 137,customer_services@lincolnshire.gov.uk
Liverpool City Council,http://www.liverpool.gov.uk/,Municipal Buildings,Dale Street,Liverpool,,,L2 2DH,General enquiries (24 hours),0151 233 3000,,contactus@liverpool.gov.uk
Luton Borough Council,http://www.luton.gov.uk/,Town Hall,George Street,Luton,,Bedfordshire,LU1 2BQ,Switchboard,01582 546 000,,feedback@luton.gov.uk
Maidstone Borough Council,http://www.maidstone.gov.uk,Maidstone House,King Street,Maidstone,,Kent,ME16 6JQ,Customer Services,01622 602 000,,customerservices@maidstone.gov.uk
Maldon District Council,http://www.maldon.gov.uk/,Princes Road,,Maldon,,Essex,CM9 5DL,,01621 854 477,01621 852 575,contact@maldon.gov.uk
Malvern Hills District Council,http://www.malvernhills.gov.uk/,Council House,Avenue Road,Malvern,,Worcestershire,WR14 3AF,,01684 862 151,,worcestershirehub@malvernhills.gov.uk
Manchester City Council,http://www.manchester.gov.uk/,Town Hall,Albert Square,Manchester,,,M60 2LA,Switchboard,0161 234 5000,,
Mansfield District Council,http://www.mansfield.gov.uk/,Civic Centre,Chesterfield Road South,Mansfield,,Notts,NG19 7BH,,01623 463 463,01623 463 900,mdc@mansfield.gov.uk
Medway Council,http://www.medway.gov.uk/,Gun Wharf,Dock Road,Chatham,,Kent,ME4 4TR,Switchboard,01634 306 000,01634 332 756,customer.first@medway.gov.uk
Melton Borough Council,http://www.melton.gov.uk/,Parkside,Station Approach,Burton Street,Melton Mowbray,Leicestershire,LE13 1GH,,01664 502 502,,contactus@melton.gov.uk
Mendip District Council,http://www.mendip.gov.uk/,Council Offices,Cannards Grave Road,Shepton Mallet,,Somerset,BA4 5BT,Customer services,0300 303 8588,01749 344 050,customerservices@mendip.gov.uk
London Borough of Merton,http://www.merton.gov.uk/,Merton Civic Centre,London Road,Morden,,,SM4 5DX,,020 8274 4901,,
Mid Devon District Council,http://www.middevon.gov.uk/,Phoenix House,Phoenix Lane,Tiverton,,,EX16 6PP,,01884 255 255,01884 234 318,customerfirst@middevon.gov.uk
Mid Suffolk District Council,http://www.midsuffolk.gov.uk/,Council Offices,131 High Street,Needham Market,IPSWICH,Suffolk,IP6 8DL,,0845 606 6067,01449 724627,customerservice@csduk.com
Mid Sussex District Council,http://www.midsussex.gov.uk/,Oaklands,Oaklands Road,Haywards Heath,,West Sussex,RH16 1SS,Main Switchboard,01444 458 166,,enquiries@midsussex.gov.uk
Milton Keynes,http://www.milton-keynes.gov.uk/,Civic Offices,1 Saxon Gate East,Milton Keynes,,,MK9 3HQ,Reception,01908 691 691,,info@milton-keynes.gov.uk
Mole Valley District Council,http://www.molevalley.gov.uk/,Pippbrook,,Dorking,,Surrey,RH4 1SJ,Main reception,01306 885 001,01306 876 821,info@molevalley.gov.uk
New Forest District Council,http://www.newforest.gov.uk/,Appletree Court,,Lyndhurst,,Hampshire,SO43 7PA,Switchboard,023 8028 5000,023 8028 5555,contact@nfdc.gov.uk
Newark and Sherwood District Council,http://www.newark-sherwooddc.gov.uk/,Kelham Hall,Kelham,Newark,,Nottinghamshire,NG23 5QX,Switchboard,01636 650 000,01636 655 229,customerservices@nsdc.info
Newcastle-upon-Tyne City Council,http://www.newcastle.gov.uk/,Civic Centre,Barras Bridge,Newcastle upon Tyne,,Tyne and Wear,NE99 2BN,,0191 278 7878,01912 114 908,csc@newcastle.gov.uk
London Borough of Newham,http://www.newham.gov.uk/,,,,,,,,020 8430 2000,020 8430 1066,customer.services@newham.gov.uk
Norfolk County Council,http://www.norfolk.gov.uk/,County Hall,Martineau Lane,Norwich,,Norfolk,NR1 2DH,,0344 800 8020,,information@norfolk.gov.uk
North Devon Council,http://www.northdevon.gov.uk/,Civic Centre,North Walk,Barnstaple,,Devon,EX31 1EA,Switchboard,01271 327711,01271 388451,customerservices@northdevon.gov.uk
North Dorset District Council,http://www.dorsetforyou.com/,Nordon,Salisbury Road,Blandford Forum,,Dorset,DT11 7LL,,01258 454 111,01258 480 179,customerservices@north-dorset.gov.uk
North East Derbyshire District Council,http://www.ne-derbyshire.gov.uk/,Council House,Saltergate,Chesterfield,,Derbyshire,S40 1LF,,01246 231111,,connectne@ne-derbyshire.gov.uk
North East Lincolnshire Council,http://www.nelincs.gov.uk/,Municipal Offices,Town Hall Square,Grimsby,,North Lincolnshire,DN31 1HU,Switchboard,01472 313 131,,customerrequests@nelincs.gov.uk
North Hertfordshire District Council,http://www.north-herts.gov.uk,Council Offices,Gernon Road,Letchworth Garden City,,Hertfordshire,SG6 3JF,,01462 474000,01462 474227,service@north-herts.gov.uk
North Kesteven District Council,http://www.n-kesteven.gov.uk/,District Council Offices,Kesteven Street,Sleaford,,Lincolnshire,NG34 7EF,Customer services,01529 414 155,01529 413 956,customer_services@n-kesteven.gov.uk
North Lincolnshire Council,http://www.northlincs.gov.uk/,Civic Centre,Ashby Road,Scunthorpe,,North Lincolnshire,DN16 1AB,,01724 296 296,,customerservice@northlincs.gov.uk
North Norfolk District Council,http://www.northnorfolk.org/,Council Offices,Holt Road,Cromer,,Norfolk,NR27 9EN,Switchboard,01263 513 811,01263 515 042,
North Somerset  Council,http://www.n-somerset.gov.uk/,Town Hall,Walliscote Grove Road,Weston-super-Mare,,Somerset,BS23 1UJ,Switchboard,01934 888 888,,customer.services@n-somerset.gov.uk
North Tyneside Metropolitan Borough Council,http://www.northtyneside.gov.uk,Quadrant,The Silverlink North,Cobalt Business Park,North Tyneside,Tyne and Wear,NE27 0BY,Customer contact centre,0345 200 0101,,contact.us@northtyneside.gov.uk
North Warwickshire Borough Council,http://www.northwarks.gov.uk/,South Street,,Atherstone,,Warwickshire,CV9 1DE,Customer centre,01827 715 341,01827 719 225,customerservices@northwarks.gov.uk
North West Leicestershire District Council,http://www.nwleics.gov.uk/,Council Offices,,Coalville,,Leicestershire,LE67 3FJ,Main switchboard,01530 454 545,01530 454 506,customer.services@nwleicestershire.gov.uk
North Yorkshire County Council,http://www.northyorks.gov.uk/,County Hall,,Northallerton,,North Yorkshire,DL7 8AD,Customer services centre,0845 8 72 73 74,01609 532009,customer.services@northyorks.gov.uk
Northampton Borough Council,http://www.northampton.gov.uk/,The Guildhall,St Giles Square,Northampton,,Northamptonshire,NN1 1DE,,0300 330 7000,,enquiries@northampton.gov.uk
Northamptonshire County Council,http://www.northamptonshire.gov.uk/,County Hall,,Northampton,,Northants,NN1 1DN,,0300 126 1000,,customerservices@northamptonshire.gov.uk
Northumberland Council &#40 Unitary&#41,http://www.northumberland.gov.uk/,County Hall,,Morpeth,,Northumberland,NE61 2EF,Customer Contact Centre,0845 600 6400,,contactcentre@northumberland.gov.uk
Norwich City Council,http://www.norwich.gov.uk/,City Hall,,Norwich,,Norfolk,NR2 1NH,,"0844 980 3333, 8am to 5pm",01603 213 000,info@norwich.gov.uk
Nottingham City Council,http://www.nottinghamcity.gov.uk/,Loxley House,Station street,Nottingham,,Nottinghamshire,NG2 3NG,,01159 155 555,,haveyoursay@nottinghamcity.gov.uk
Nottinghamshire County Council,http://www.nottinghamshire.gov.uk/,County Hall,Loughborough Road,West Bridgford,Nottingham,Nottinghamshire,NG2 7QP,,08449 808080,01159 455 113,enquiries@nottscc.gov.uk
Nuneaton and Bedworth Borough Council,http://www.nuneatonandbedworth.gov.uk/,Town Hall,Coton Road,Nuneaton,,Warwickshire,CV11 5AA,Switchboard,024 7637 6376,,customer.services@nuneatonandbedworth.gov.uk
Oadby and Wigston District Council,http://oadby-wigston.gov.uk/Home/Home.aspx,Council Offices,Station Road,Wigston,,Leicestershire,LE18 2DR,,0116 288 8961,0116 288 7828,
Oldham Metropolitan Borough Council,http://www.oldham.gov.uk/,Civic Centre,West Street,Oldham,,Lancashire,OL1 1UG,General enquiries,0161 770 3000,,
Oxford City Council,http://www.oxford.gov.uk/,PO Box 10,,Oxford,,Oxfordshire,OX1 1EN,General enquiries,01865 249 811,,customerservices@oxford.gov.uk
Oxfordshire County Council,http://www.oxfordshire.gov.uk/,County Hall,New Road,Oxford,,Oxfordshire,OX1 1ND,Main switchboard,01865 792 422,01865 726 155,online@oxfordshire.gov.uk
Pendle Borough Council,http://www.pendle.gov.uk/,Market Street,,Nelson,,Lancashire,BB9 7LG,,01282 661 661,01282 661 130,customer.services@pendle.gov.uk
Peterborough City Council,http://www.peterborough.gov.uk/,Town Hall,Bridge Street,Peterborough,,,PE1 1HF,,01733 747 474,01733 345 090,ask@peterborough.gov.uk
Plymouth City Council,http://www.plymouth.gov.uk/,Civic Centre,,Plymouth,,,PL1 2AA,,01752 668 000,01752 304 880,enquiries@plymouth.gov.uk
Portsmouth City Council,http://www.portsmouth.gov.uk/,Civic Offices,Guildhall Square,Hants,,,PO1 2BG,,023 9282 2251,,general@portsmouthcc.gov.uk
Preston City Council,http://www.preston.gov.uk/,Town Hall,Lancaster Road,,Preston,Lancashire,PR1 2RL,Contact centre,01772 906 900,01772 906 195,info@preston.gov.uk
Purbeck District Council,http://www.dorsetforyou.com/,Westport House,Worgret Road,Wareham,,Dorset,BH20 4PP,,01929 556 561,01929 552 688,
Reading Borough Council,http://beta.reading.gov.uk/,Civic Offices,Bridge Street,Reading,,,RG1 2LU,,0118 937 3787,,
London Borough of Redbridge,http://www.redbridge.gov.uk/,PO Box No.2,Town Hall,Ilford,,Essex,IG1 1DD,,020 8554 5000,,customer.cc@redbridge.gov.uk
Redcar and Cleveland Council,http://www.redcar-cleveland.gov.uk/,Redcar & Cleveland House,Kirkleatham Street,Redcar,,,TS10 1RT,Main switchboard,01642 774 774,,contactus@redcar-cleveland.gov.uk
Redditch Borough Council,http://www.redditchbc.gov.uk/,Town Hall,Walter Stranz Square,Redditch,,Worcestershire,B98 8AH,Switchboard,0152 764 252,0152 765 216,contact.centre@bromsgroveandredditch.gov.uk
Reigate and Banstead Borough Council,http://www.reigate-banstead.gov.uk/,Reigate Town Hall,Castlefield Road,Reigate,,Surrey,RH2 OSH,,01737 276 000,,customer.services@reigate-banstead.gov.uk
Ribble Valley Borough Council,https://www.ribblevalley.gov.uk/,Council Offices,Church Walk,Clitheroe,,Lancashire,BB7 2RA,,01200 425111,01200 414488,contact@ribblevalley.gov.uk
London Borough of Richmond upon Thames,http://www.richmond.gov.uk/,Civic Centre,44 York Street,Twickenham,,Middlesex,TW1 3BZ,Main switchboard,08456 122 660,,customer.services@richmond.gov.uk
Richmondshire District Council,http://richmondshire.gov.uk,Swale House,Frenchgate,Richmond,,North Yorkshire,DL10 4JE,,01748 829 100,01748 825 071,enquiries@richmondshire.gov.uk
Rochdale Metropolitan Borough Council,http://www.rochdale.gov.uk/,Number One Riverside,Smith Street,Rochdale,,Lancashire,OL16 1XU,Switchboard,01706 647 474,,council@rochdale.gov.uk
Rochford District Council,http://www.rochford.gov.uk/,Council Offices,South Street,Rochford,,Essex,SS4 1BW,Switchboard,01702 546 366,01702 545 737,customerservices@rochford.gov.uk
Rossendale Borough Council,http://www.rossendale.gov.uk/,Town Centre Offices,Lord Street,Rossendale,,Lancashire,BB4 7LZ,,01706 217 777,,generalenquiries@rossendalebc.gov.uk
Rother District Council,http://www.rother.gov.uk/,Town Hall,,Bexhill-on-Sea,,East Sussex,TN39 3JX,,01424 787000,01424 787879,customerservices@rother.gov.uk
Rotherham Metropolitan Borough Council,http://www.rotherham.gov.uk/,Riverside House,Main Street,Rotherham,,South Yorkshire,S60 1AE,Switchboard,01709 382 121,,
Rugby Borough Council,http://www.rugby.gov.uk/,Town Hall,Evreux Way,Rugby,,Warwickshire,CV21 2RR,,01788 533 533,01788 533 409,contactcentre@rugby.gov.uk
Runnymede Borough Council,http://www.runnymede.gov.uk/,Runnymede Civic Centre,Station Road,Addlestone,,Surrey,KT15 2AH,,01932 838 383,01932 838 384,enquiries@runnymede.gov.uk
Rushcliffe Borough Council,http://www.rushcliffe.gov.uk/,Civic Centre,Pavilion Road,West Bridgford,,Nottinghamshire,NG2 5FE,Customer services,01159 819 911,01159 455 882,customerservices@rushcliffe.gov.uk
Rushmoor Borough Council,http://www.rushmoor.gov.uk/,Council Offices,Farnborough Road,Farnborough,,Hampshire,GU14 7JU,,01252 398 399,01252 524 017,customerservices@rushmoor.gov.uk
Rutland County Council,http://www.rutland.gov.uk/,Catmose,Oakham,Rutland,,,LE15 6HP,,01572 722 577,01572 758 307,enquiries@rutland.gov.uk
Ryedale District Council,http://www.ryedale.gov.uk,Ryedale House,Old Malton Road,Malton,,North Yorkshire,YO17 7HH,Switchboard,01653 600 666,01653 696 801,info@ryedale.gov.uk
Salford City Council,http://www.salford.gov.uk,Civic Centre,Chorley Road,Swinton,Salford,Lancashire,M27 5DA,Main switchboard,0161 794 4711,,customercontact.centre@salford.gov.uk
Sandwell Metropolitan Borough Council,http://www.sandwell.gov.uk/,Sandwell Council House,PO Box 2374,Oldbury,,West Midlands,B69 3DE,Switchboard,0845 358 2200,0121 569 3722,contact@sandwell.gov.uk
Scarborough Borough Council,http://www.scarborough.gov.uk/,Town Hall,St Nicholas Street,Scarborough,,North Yorkshire,YO11 2HG,,01723 232 323,01723 506 600,customer.first@scarborough.gov.uk
Sedgemoor District Council,http://www.sedgemoor.gov.uk/,Bridgwater House,King Square,Bridgwater,,Somerset,TA6 3AR,General enquiries,0845 408 2540,,customer.services@sedgemoor.gov.uk
Sefton Metropolitan Borough Council,http://www.sefton.gov.uk/,324-342 Stanley Road,,Bootle,,Merseyside,L20 6ET,Contact centre,0845 140 0845,,contact@sefton.gov.uk
Selby District Council,http://www.selby.gov.uk/,Civic Centre,Doncaster Road,Brayton,Selby,North Yorkshire,Y08 9FT,,01757 705101,01757 292 176,info@selby.gov.uk
Sevenoaks District Council,http://www.sevenoaks.gov.uk/,Council Offices,Argyle Road,Sevenoaks,,Kent,TN13 1HG,,01732 227 000,,information@sevenoaks.gov.uk
Sheffield City Council,http://www.sheffield.gov.uk/,Town Hall,Pinstone Street,,Sheffield,South Yorkshire,S1 2HH,General enquiries,0114 27 34567,,firstpoint@sheffield.gov.uk
Shepway District Council,http://www.shepway.gov.uk/,Civic Centre,Castle Hill Avenue,Folkestone,,Kent,CT20 2QY,General enquires,01303 853 000,01303 245 978,shepway@shepway.gov.uk
Shropshire Council - Unitary,http://www.shropshire.gov.uk/,Shropshire Council,"Shirehall, Abbey Foregate",Shrewsbury,,Shropshire,SY2 6ND,General enquiries,0345 678 9000,01743 252 827,customer.service@shropshire.gov.uk
Slough Borough Council,http://www.slough.gov.uk/,Landmark Place,High Street,Slough,,Berkshire,SL1 1JL,,01753 475 111,,enquiries@slough.gov.uk
Solihull Metropolitan Borough Council,http://www.solihull.gov.uk/,Council House,Manor Square,Solihull,,West Midlands,B91 3QB,Customer services,0121 704 6000,,connectcc@solihull.gov.uk
Somerset County Council,http://www.somerset.gov.uk/,County Hall,,Taunton,,Somerset,TA1 4DY,General enquiries,0845 345 9166,,somersetdirect@somerset.gov.uk
South Buckinghamshire District Council,http://www.southbucks.gov.uk/,Capswood,Oxford Road,Denham,,Buckinghamshire,UB9 4LH,Customer services,01895 837 200,,sbdc@southbucks.gov.uk
South Cambridgeshire District Council,http://www.scambs.gov.uk/,South Cambridgeshire Hall,Cambourne Business Park,Cambourne,,Cambridgeshire,CB23 6EA,General Enquiries,03450 450 500,01954 713 149,scdc@scambs.gov.uk
South Derbyshire District Council,http://www.south-derbys.gov.uk/,Civic Offices,Civic Way,Swadlincote,,Derbyshire,DE11 0AH,,01283 595 795,01283 595 964,customer.services@south-derbys.gov.uk
South Gloucestershire Council,http://www.southglos.gov.uk/,The Council Offices,High Street,Kingswood,Bristol,,BS15 9TR,,01454 868009,,corporatecontactcentre@southglos.gov.uk
South Hams District Council,http://www.southhams.gov.uk/,Follaton House,Plymouth Road,Totnes,,Devon,TQ9 5NE,,01803 861 234,01803 866 151,customer.services@southhams.gov.uk
South Holland District Council,http://www.sholland.gov.uk/,Council Offices,Priory Road,Spalding,,Lincolnshire,PE11 2XE,,01775 761 161,01775 711 253,info@sholland.gov.uk
South Kesteven District Council,http://www.southkesteven.gov.uk/,Council Offices,St Peters Hill,Grantham,,Lincolnshire,NG31 6PZ,,01476 406 080,01476 406 000,frontdesk@southkesteven.gov.uk
South Lakeland District Council,http://www.southlakeland.gov.uk/,South Lakeland House,Lowther Street,Kendal,,,LA9 4UF,,0845 050 4434,01539 740 300,info@southlakeland.gov.uk
South Norfolk District Council,http://www.south-norfolk.gov.uk/,South Norfolk House,Swan Lane,Long Stratton,,Norfolk,NR15 2XE,,01508 533 633,,reception@s-norfolk.gov.uk
South Northamptonshire Council,http://www.southnorthants.gov.uk/,Springfields,,Towcester,,Northants,NN12 6AE,,0845 230 0226,01327 322 074,customerservice@southnorthants.gov.uk
South Oxfordshire District Council,http://www.southoxon.gov.uk/,135 Eastern Avenue,Milton Park,Milton,,Oxfordshire,OX14 4SB,,01491 823 000,,info@southoxon.gov.uk
South Ribble Borough Council,http://www.southribble.gov.uk/,Civic Centre,West Paddock,Leyland,,,PR25 1DH,,01772 421 491,01772 622 287,info@southribble.gov.uk
South Somerset District Council,www.southsomerset.gov.uk,Council Offices,Brympton Way,Yeovil,,Somerset,BA20 2HT,,01935 462 462,,
South Staffordshire Council,http://www.sstaffs.gov.uk/,Council Offices,Wolverhampton Road,Codsall,,South Staffordshire,WV8 1PX,,01902 696 000,01902 696 800,info@sstaffs.gov.uk
South Tyneside Council,http://www.southtyneside.gov.uk,Town Hall and Civic Offices,Westoe Road,South Shields,,Tyne and Wear,NE33 2RL,Customer contact centre,0191 427 7000,,customerhelp@southtyneside.gov.uk
Southampton City Council,http://www.southampton.gov.uk/,Civic Centre,,Southampton,,Hampshire,SO14 7LY,Switchboard,023 8022 3855,,gateway@southampton.gov.uk
Southend-on-Sea Borough Council,http://www.southend.gov.uk/,Ground Floor,Civic Centre,Southend on Sea,,Essex,SS2 6ER,,01702 215 000,,council@southend.gov.uk
London Borough of Southwark,http://www.southwark.gov.uk,160 Tooley Street,Southwarl,London,,,SE1 2QH,Switchboard,020 7525 5000,,csc@southwark.gov.uk
Spelthorne Borough Council,http://www.spelthorne.gov.uk/,Council Offices,Knowle Green,Staines,,Surrey,TW18 1XB,Reception,01784 451 499,01784 463 356,customer.services@spelthorne.gov.uk
St Albans City and District Council,http://www.stalbans.gov.uk/,Civic Centre,St Peters Street,St Albans,,Hertfordshire,AL1 3JE,Customer services,01727 866 100,,webmaster@stalbans.gov.uk
St Helens Metropolitan Borough Council,http://www.sthelens.gov.uk,Contact Centre,Wesley House,St Helens,,Merseyside,WA10 1HF,,01744 676 789,01744 456 895,contactcentre@sthelens.gov.uk
Stafford Borough Council,http://www.staffordbc.gov.uk/,Civic Centre,Riverside,Stafford,,Staffordshire,ST16 3AQ,Customer contact centre,01785 619 000,01785 619 219,info@staffordbc.gov.uk
Staffordshire County Council,http://www.staffordshire.gov.uk/,Staffordshire Place 2,,Stafford,,,ST16 2LP,,01785 278866,,webmaster@staffordshire.gov.uk
Staffordshire Moorlands District Council,http://www.staffsmoorlands.gov.uk/,Moorlands House,Stockwell Street,Leek,,Staffordshire,ST13 6HQ,Customer service centre,0845 605 3010,01538 483 474,customer.services@staffsmoorlands.gov.uk
Stevenage Borough Council,http://www.stevenage.gov.uk/,Daneshill House,Danestrete,Stevenage,,Hertfordshire,SG1 1HN,,01438 242 242,01438 242 566,csc@stevenage.gov.uk
Stockport Metropolitan Borough Council,http://www.stockport.gov.uk/,Town Hall,Edward Street,Stockport,,Greater Manchester,SK1 3XE,,,,stockportdirect@stockport.gov.uk
Stockton-on-Tees Borough Council,http://www.stockton.gov.uk/,Municipal Buildings,PO Box 11,Stockton-on-Tees,,,TS18 1LD,,01642 393 939,,customercomments@stockton.gov.uk
Stoke-on-Trent City Council,http://www.stoke.gov.uk/,Civic Centre,Glebe Street,,Stoke-on-Trent,Staffordshire,ST4 1HH,,01782 234234,,enquiries@stoke.gov.uk
Stratford-on-Avon District Council,http://www.stratford.gov.uk/,Elizabeth House,Church Street,Stratford upon Avon,,Warwickshire,CV37 6HX,,01789 267 575,01789 260 007,info@stratford-dc.gov.uk
Stroud District Council,http://www.stroud.gov.uk/,Ebley Mill,Westward Road,Stroud,,Gloucestershire,GL5 4UB,Switchboard,01453 766 321,,web.comments@stroud.gov.uk
Suffolk County Council,http://www.suffolk.gov.uk/,Endeavour House,8 Russell Road,Ipswich,,Suffolk,IP1 2BX,Customer Services,0345 606 6067,,customerservice@suffolk.gov.uk
Suffolk Coastal District Council,http://www.suffolkcoastal.gov.uk/,Melton Hill,,Woodbridge,,Suffolk,IP12 1AU,General enquiries,01394 383 789,01394 385 100,customerservices@suffolkcoastal.gov.uk
Sunderland City Council,http://www.sunderland.gov.uk/,City Centre Customer Service Centre,31-32 Fawcett Street,,Sunderland,,SR1 1RE,,0191 520 5555,,enquiries@sunderland.gov.uk
Surrey County Council,http://www.surreycc.gov.uk/,"Room 296, County Hall",Penrhyn Road,Kingston upon Thames,,Surrey,KT1 2DW,General enquiries,0345 600 9009,020 8541 9004,contact.centre@surreycc.gov.uk
Surrey Heath Borough Council,http://www.surreyheath.gov.uk/,Surrey Heath House,Knoll Road,Camberley,,Surrey,GU15 3HD,,01276 707 100,01276 707 177,enquiries@surreyheath.gov.uk
London Borough of Sutton,http://www.sutton.gov.uk/,Civic Offices,St. Nicholas Way,Sutton,,,SM1 1EA,,020 8770 5000,,webadmin@sutton.gov.uk
Swale Borough Council,http://www.swale.gov.uk/,Swale House,East Street,Sittingbourne,,Kent,ME10 3HT,Customer Service Centre,01795 417 850,01795 417 141,csc@swale.gov.uk
Swindon Borough Council,http://www.swindon.gov.uk/,Civic Offices,Euclid Street,Swindon,,Wiltshire,SN1 2JH,General enquiries,01793 445 500,,customerservices@swindon.gov.uk
Tameside Metropolitan Borough Council,http://www.tameside.gov.uk/,Council Offices,Wellington Road,Ashton-under-Lyne,,,OL6 6DL,,0161 342 8355,0161 342 3070,customer.services@tameside.gov.uk
Tamworth Borough Council,http://www.tamworth.gov.uk/,Marmion House,Lichfield Street,Tamworth,,Staffordshire,B79 7BZ,,01827 709 709,,enquiries@tamworth.gov.uk
Tandridge District Council,http://www.tandridge.gov.uk/,Station Road East,,Oxted,,Surrey,RH8 0BT,,01883 722 000,01883 722 015,the.council@tandridge.gov.uk
Taunton Deane Borough Council,http://www.tauntondeane.gov.uk,The Deane House,Belvedere Road,Taunton,,Somerset,TA1 1HE,Customer services,01823 356433,01823 356 329,bdsupport@somerset.gov.uk
Teignbridge District Council,http://www.teignbridge.gov.uk,Forde House,Brunel Road,Newton Abbot,,Devon,TQ12 4XX,,01626 361 101,01626 215 182,info@teignbridge.gov.uk
Telford & Wrekin Council,http://www.telford.gov.uk,Addenbrooke House,Ironmasters Way,Telford,,Shropshire,TF3 4NT,Switchboard,01952 380 000,,contact@telford.gov.uk
Tendring District Council,http://www.tendringdc.gov.uk/,Town Hall,Station Road,Clacton on Sea,,Essex,CO15 1SE,Switchboard,01255 686 868,,
Test Valley Borough Council,http://www.testvalley.gov.uk/,Beech Hurst,Weyhill Road,Andover,,Hampshire,SP10 3AJ,,01264 368 000,01264 368 149,info@testvalley.gov.uk
Tewkesbury Borough Council,http://tewkesbury.gov.uk/,Council Offices,Gloucester Road,Tewkesbury,,Gloucestershire,GL20 5TT,Main Switchboard,01684 295 010,01684 272 039,enquiries@tewkesbury.gov.uk
Thanet District Council,http://thanet.gov.uk/,PO Box 9,Cecil Street,Margate,,Kent,CT9 1XZ,Switchboard,01843 577 000,01843 290 906,customer.services@thanet.gov.uk
Three Rivers District Council,http://www.threerivers.gov.uk/,Three Rivers House,Northway,Rickmansworth,,Hertfordshire,WD3 1RL,,01923 776 611,,enquiries@threerivers.gov.uk
Thurrock Council,http://www.thurrock.gov.uk/,Civic Offices,New Road,Grays,,Essex,RM17 6SL,General enquiries,01375 652 652,,general.enquiries@thurrock.gov.uk
Tonbridge and Malling Borough Council,http://www.tmbc.gov.uk,Gibson Building,"Gibson Drive, Kings Hill,",West Malling,,Kent,ME19 4LZ,Switchboard,01732 844 522,01732 842 170,admin.services@tmbc.gov.uk
Torbay Council,http://www.torbay.gov.uk/,Town Hall,Castle Circus,Torquay,,Devon,TQ1 3DR,,01803 207201,01803 207 121,connections@torbay.gov.uk
Torridge District Council,http://www.torridge.gov.uk/,Riverbank House,,Bideford,,Devon,EX39 2QG,General enquiries,01237 428 700,01237 478 849,
London Borough of Tower Hamlets,http://www.towerhamlets.gov.uk/,Town Hall,Mulberry Place,London,,,E14 2BG,General enquiries,020 7364 5000,,generalenquiries@towerhamlets.gov.uk
Trafford Metropolitan Borough Council,http://www.trafford.gov.uk/,Trafford Town Hall,Talbot Road,Stretford,,Manchester,M32 0TH,General enquiries,0161 912 2000,0161 912 1866,access.trafford@trafford.gov.uk
Tunbridge Wells Borough Council,http://www.tunbridgewells.gov.uk/,Town Hall,Civic Way,Royal Tunbridge Wells,,Kent,TN1 1RS,Switchboard,01892 526 121,01892 534 227,info@tunbridgewells.gov.uk
Uttlesford District Council,http://www.uttlesford.gov.uk/,Council Offices,London Road,Saffron Walden,,Essex,CB11 4ER,,01799 510 510,01799 510 550,uconnect@uttlesford.gov.uk
Vale of White Horse District Council,http://www.whitehorsedc.gov.uk/,135 Eastern Avenue,Milton Park,Milton,,Oxfordshire,OX14 4SB,,01235 520 202,,comments@whitehorsedc.gov.uk
Wakefield Metropolitan District Council,http://www.wakefield.gov.uk/,Town Hall,Wood Street,Wakefield,,,WF1 2HQ,Switchboard,01924 306 090,,customerservices@wakefield.gov.uk
Walsall Metropolitan Borough Council,http://www.walsall.gov.uk/,The Civic Centre,,Walsall,,West Midlands,WS1 1TP,,01922 650 000,01922 720 885,info@walsall.gov.uk
London Borough of Waltham Forest,http://www.walthamforest.gov.uk/pages/index.aspx,Town Hall,Forest Road,Walthamstow,London,,E17 4JF,Waltham Forest Direct,020 8496 3000,020 8496 3301,wfdirect@walthamforest.gov.uk
London Borough of Wandsworth,http://www.wandsworth.gov.uk/,The Town Hall,Wandsworth High Street,London,,,SW18 2PU,Switchboard,020 8871 6000,,enquiries@wandsworth.gov.uk
Warrington Borough Council,http://www.warrington.gov.uk/,Contact Warrington,Horsemarket Street,Warrington,,Cheshire,WA1 1XL,General enquiries,01925 443322,01925 443211,contact@warrington.gov.uk
Warwick District Council,http://www.warwickdc.gov.uk/,Riverside House,Milverton Hill,Leamington Spa,,,CV32 5HZ,Switchboard,01926 450 000,01926 456 509,contactus@warwickdc.gov.uk
Warwickshire County Council,http://www.warwickshire.gov.uk/,Shire Hall,,Warwick,,Warwickshire,CV34 4SA,,01926 410 410,01926 412 377,webmaster@warwickshire.gov.uk
Watford Borough Council,http://www.watford.gov.uk/,Town Hall,,Watford,,Hertfordshire,WD17 3EX,,01923 226 400,01923 278 100,enquiries@watford.gov.uk
Waveney District Council,http://www.waveney.gov.uk/,Town Hall,High Street,Lowestoft,,Suffolk,NR32 1HS,,01502 562 111,,info@waveney.gov.uk
Waverley Borough Council,http://www.waverley.gov.uk/,The Burys,,Godalming,,Surrey,GU7 1HR,,01483 523 333,01483 426 337,enquiries@waverley.gov.uk
Wealden District Council,http://www.wealden.gov.uk/,Vicarage Lane,,Hailsham,,East Sussex,BN27 2AX,Hailsham Office and Crowborough Office,01323 443 322 or 01892 653 311,01323 443 333,info@wealden.gov.uk
Wellingborough Borough Council,http://www.wellingborough.gov.uk/,Swanspool House,Doddington Road,Wellingborough,,Northamptonshire,NN8 1BP,,01933 229 777,01933 231 543,customerservices@wellingborough.gov.uk
Welwyn Hatfield Council,http://www.welhat.gov.uk/,Council Offices,The Campus,Welwyn Garden City,,Hertfordshire,AL8 6AE,General enquiries,01707 357 000,,contact-WHC@welhat.gov.uk
West Berkshire Council,http://www.westberks.gov.uk/,Council Offices,Market Street,Newbury,,West Berkshire,RG14 5LD,Switchboard,01635 424 00,01635 519 479,info@westberks.gov.uk
West Devon Borough Council,http://www.westdevon.gov.uk/,Kilworthy Park,,Tavistock,,Devon,PL19 0BZ,,01822 813 600,01822 813 634,info@westdevon.gov.uk
West Dorset District Council,http://www.dorsetforyou.com/,South Walks House,South Walks Road,Dorchester,,Dorset,DT1 1UZ,Switchboard &#40 includes Typetalk calls&#41,01305 251 010,,c.services@westdorset-weymouth.gov.uk
West Lancashire Borough Council,http://www.westlancs.gov.uk/,P O Box 16,52 Derby Street,Ormskirk,,Lancashire,L39 2DF,Customer services,01695 577 177,,customer.services@westlancs.gov.uk
West Lindsey District Council,http://www.west-lindsey.gov.uk/,The Guildhall,Marshalls Yard,Gainsborough,,Lincolnshire,DN21 2NA,Customer services,01427 676 676,01427 675 170,customer.relations@west-lindsey.gov.uk
West Oxfordshire District Council,http://www.westoxon.gov.uk/,Town Centre Shop,3 Welch Way,Witney,,Oxfordshire,OX28 6JH,Switchboard,01993 861 000,01993 861 050,enquiries@westoxon.gov.uk
West Somerset District Council,http://www.westsomersetonline.gov.uk/,West Somerset House,Killick Way,Williton,Taunton,Somerset,TA4 4QA,,01643 703 704,01984 633 022,customerservices@westsomerset.gov.uk
West Sussex County Council,http://www.westsussex.gov.uk/,County Hall,West Street,Chichester,,West Sussex,PO19 1RQ,,01243 777 100,,
City of Westminster,http://www.westminster.gov.uk/,P.O. Box 240,Westminster City Hall,London,,,SW1E 6QP,Customer enquiry line,020 7641 6000,020 7645 5510,
Weymouth and Portland Borough Council,http://www.dorsetforyou.com/,Council Offices,North Quay,Weymouth,,Dorset,DT4 8TA,Customer contact centre,01305 838000,,
Wigan Metropolitan Borough Council,http://www.wigan.gov.uk,Town Hall,Library Street,Wigan,,,WN1 1YN,General enquiries,01942 244 991,,
Wiltshire Council (Unitary),http://www.wiltshire.gov.uk/,County Hall,Bythesea Road,Trowbridge,,Wiltshire,BA14 8JN,,0300 456 0100,01225 713 145,customerservices@wiltshire.gov.uk
Winchester City Council,http://www.winchester.gov.uk/,City Offices,Colebrook Street,Winchester,,Hampshire,SO23 9LJ,Switchboard,01962 840 222,01962 841 365,info@winchester.gov.uk
Royal Borough of Windsor and Maidenhead,http://www.rbwm.gov.uk/,Town Hall,St Ives Road,Maidenhead,,Berkshire,SL6 1RF,Customer Service Centre,01628 683800,01628 685757,customer.service@rbwm.gov.uk
Wirral Council,http://www.wirral.gov.uk/,Town Hall,Brighton Street,Wallasey,,Wirral,CH44 8ED,General switchboard,0151 606 2000,,comments@wirral.gov.uk
Woking Borough Council,http://www.woking.gov.uk/,Civic Offices,Gloucester Square,Woking,,Surrey,GU21 6YL,,01483 755 855,,customers@woking.gov.uk
Wokingham Borough Council,http://www.wokingham.gov.uk/,Civic Offices,Shute End,Wokingham,,Surrey,RG40 1BN,,01189 746 000,01189 789 078,wokinghambc@wokingham.gov.uk
Wolverhampton City Council,http://www.wolverhampton.gov.uk,Civic Centre,St. Peters Square,,Wolverhampton,West Midlands,WV1 1SH,Customer services,01902 551155,01902 551195,city.direct@wolverhampton.gov.uk
Worcester City Council,http://www.worcester.gov.uk,The Guildhall,High Street,,Worcester,Worcestershire,WR1 2EY,Switchboard,01905 722 233,,customerservicecentre@worcester.gov.uk
Worcestershire County Council,http://www.worcestershire.gov.uk,County Hall,Spetchley Road,,Worcester,Worcestershire,WR5 2NP,,01905 763 763,,
Worthing Borough Council,http://www.adur-worthing.gov.uk/,Worthing Town Hall,Chapel Road,Worthing,,West Sussex,BN11 1HA,,01903 239 999,01903 236 552,enquiries@worthing.gov.uk
Wychavon District Council,http://www.wychavon.gov.uk/,Civic Centre,Queen Elizabeth Drive,Pershore,,Worcestershire,WR10 1PT,General enquiries,01386 565 000,01386 565 290,customerservices@wychavon.gov.uk
Wycombe District Council,http://www.wycombe.gov.uk/,Queen Victoria Road,,High Wycombe,,Buckinghamshire,HP11 1BB,Switchboard,01494 461 000,01494 461 292,
Wyre Council,http://www.wyre.gov.uk,Civic Centre,Breck Road,Poulton-le-Fylde,,Lancashire,FY6 7PU,,01253 891 000,01253 899 000,mailroom@wyre.gov.uk
Wyre Forest District Council,http://www.wyreforestdc.gov.uk/cms/default.aspx,Wyre Forest District Council Offices,Wyre Forest House,Finepoint Way,Kidderminster,Worcestershire,DY11 7WF,Customer Services,01562 732 928,,worcestershirehub@wyreforestdc.gov.uk
City of York Council,http://www.york.gov.uk,West Offices,Station Rise,,York,,YO1 6GA,General enquiries,01904 551 550,,ycc@york.gov.uk
Barrow-in-Furness Borough Council,http://www.barrowbc.gov.uk/,Town Hall,Duke Street,Barrow in Furness,,Cumbria,LA14 2LD,Main switchboard,01229 876 300,01229 876317,admin@barrowbc.gov.uk
Bury Metropolitan Borough Council,http://www.bury.gov.uk/,Town Hall,Knowsley Street,Bury,,Lancashire,BL9 OSW,Switchboard,01612 535 000,,info@bury.gov.uk
Dudley Metropolitan Borough Council,http://www.dudley.gov.uk/,Council House,Priory Road,Dudley,,West Midlands,DY1 1HF,Customer services,0300 555 2345,,dudleycouncilplus@dudley.gov.uk
London Borough of Ealing,http://www.ealing.gov.uk/,Perceval House,14-16 Uxbridge Road,London,,,W5 2HL,Switchboard,020 8825 5000,,customers@ealing.gov.uk
Elmbridge Borough Council,http://www.elmbridge.gov.uk/,Civic Centre,High Street,Esher,,Surrey,KT10 9SD,Switchboard,01372 474 474,01372 474 972,contactus@elmbridge.gov.uk
Gateshead Metropolitan Borough Council,http://www.gateshead.gov.uk/,Civic Centre,Regent Street,Gateshead,,Tyne and Wear,NE8 1HH,Switchboard,01914 333 000,,customerservices@gateshead.gov.uk
Hambleton District Council,http://www.hambleton.gov.uk/,Civic Centre,Stone Cross,Northallerton,,North Yorkshire,DL6 2UU,Contact centre,01609 779977,01609 767228,info@hambleton.gov.uk
Middlesbrough Borough Council,http://www.middlesbrough.gov.uk/,PO Box 99A,Town Hall,Middlesbrough,,,TS1 2QQ,Customer services,01642 245 432,,contactcentre@middlesbrough.gov.uk
St Edmundsbury Borough Council,http://www.stedmundsbury.gov.uk/,West Suffolk House,Western Way,Bury St Edmunds,,Suffolk,IP33 3YU,Customer Services,01284 763233,1284757378,stedmundsbury@stedsbc.gov.uk
Bristol City Council,http://www.bristol.gov.uk/,City Hall,College Green,Bristol,,,BS1 5TR,Switchboard,0117 922 2000,,customer.services@bristol.gov.uk
Royal Borough of Kingston upon Thames,http://www.kingston.gov.uk,Guildhall,High Street,Kingston upon Thames,,,KT1 1EU,Main telephone,020 8547 5000,,information@kingston.gov.uk
Newcastle-Under-Lyme District Council,http://www.newcastle-staffs.gov.uk/,Civic Offices,Merrial Street,Newcastle under Lyme,,Staffordshire,ST5 2AG,Switchboard,01782 717 717,,customerservices@newcastle-staffs.gov.uk
Borough of Poole,http://www.boroughofpoole.com/,Civic Centre,Municipal Road,Poole,,Dorset,BH15 2RU,,01202 633 633,,enquiries@boroughofpoole.com
Central Bedfordshire Council,http://www.centralbedfordshire.gov.uk,Central Bedfordshire Council,Priory House,Monks Walk,Chicksands,Bedfordshire,SG17 5TQ,,0300 300 8000,,customer.services@centralbedfordshire.gov.uk
Cheshire West and Chester Council,http://www.cheshirewestandchester.gov.uk/,HQ,"58 Nicholas Street,",,Chester,Cheshire,CH1 2NP,Customer service centre,0300 123 8 123,,enquiries@cheshirewestandchester.gov.uk
Aberdeenshire Council,http://www.aberdeenshire.gov.uk/,Woodhill House,Westburn Road,,Aberdeen,Aberdeenshire,AB16 5GB,General enquires,0845 608 1207,,
Aberdeen City Council,http://www.aberdeencity.gov.uk/,Aberdeen City Council Customer Service Centre,"Ground Floor, Marischal College",Broad Street,Aberdeen,,AB10 1AB,General enquires,0845 608 0910,,
Isle of Anglesey County Council,http://www.anglesey.gov.uk,Council Offices,,Llangefni,,Anglesey,LL77 7TW,Switchboard,01248 750 057,,
Angus Council,http://www.angus.gov.uk,Angus House,Orchardbank Business Park,Forfar,,Angus,DD8 1AX,Accessline,08452 777 778,01307 466 183,accessline@angus.gov.uk
Antrim Borough Council,http://www.antrim.gov.uk/,Antrim Civic Centre,50 Stiles Way,Antrim,,,BT41 2UB,,028 9446 3113,028 9448 1324,info@antrim.gov.uk
Ards Borough Council,http://www.ards-council.gov.uk/,2 Church Street,Newtownards,,,County Down,BT23 4AP,,028 9182 4000,028 9181 9628,ards@ards-council.gov.uk
Armagh City and District Council,http://www.armagh.gov.uk,Council Offices,The Palace Demesne,,Armagh,,BT60 4EL,,028 3752 9600,028 3752 9601,info@armagh.gov.uk
Argyll and Bute Council,http://www.argyll-bute.gov.uk,Kilmory,,Lochgilphead,,Argyll,PA31 8RT,,01546 602 127,,enquiries@argyll-bute.gov.uk
Ballymena Borough Council,http://www.ballymena.gov.uk/,Ardeevin,80 Galgorm Road,Ballymena,,,BT42 1AB,,08456 581581,028 2566 0400,council.reception@ballymena.gov.uk
Ballymoney Borough Council,http://www.ballymoney.gov.uk/,Riada House,14 Charles Street,Ballymoney,,County Antrim,BT53 6DZ,Reception,028 2766 0200,028 2766 0222,info@ballymoney.gov.uk
Banbridge District Council,http://www.banbridge.com/,Civic Building,Downshire Road,Banbridge,,County Down,BT32 3JY,,028 4066 0600,028 4066 0601,info@banbridge.gov.uk
Belfast City Council,http://www.belfastcity.gov.uk,Belfast City Hall,,,Belfast,,BT1 5GS,General enquiries,028 9032 0202,,generalenquiries@belfastcity.gov.uk
Bridgend County Borough Council,http://www.bridgend.gov.uk,Civic Offices,Angel Street,Bridgend,,,CF31 4WB,,01656 643 643,01656 668 126,talktous@bridgend.gov.uk
Caerphilly County Borough Council,http://www.caerphilly.gov.uk,Ty Penallta,Tredomen Park,,Ystrad Mynach,,CF82 7PG,Switchboard,01443 815 588 or 01495 226 622,,info@caerphilly.gov.uk
Carrickfergus Borough Council,http://www.carrickfergus.org,Carrickfergus Museum and Civic Centre,11 Antrim Street,Carrickfergus,,County Antrim,BT38 9DG,,028 9335 8000,028 9336 6676,info@carrickfergus.org
Cardiff Council,http://www.cardiff.gov.uk,County Hall,Atlantic Wharf,,Cardiff,,CF10 4UW,Contact centre,029 2087 2087 (English) 029 2087 2088 (Cymraeg),029 2087 2086,c2c@cardiff.gov.uk
Carmarthenshire County Council,http://www.carmarthenshire.gov.uk,County Hall,,Carmarthen,,Carmarthenshire,SA31 1JP,Carmarthenshire Direct (customer contact centre),01267 234 567,,direct@carmarthenshire.gov.uk
Castlereagh Borough Council,http://www.castlereagh.gov.uk,Civic Centre,"1 Bradford Court, Upper Galwally",Castlereagh,Belfast,,BT8 6RB,,028 9049 4500,028 9049 4515,council@castlereagh.gov.uk
Ceredigion County Council,http://www.ceredigion.gov.uk,Neuadd Cyngor Ceredigion,Penmorfa,Aberaeron,,Ceredigion,SA46 0PA,Aberaeron,01545 570 881,,reception@ceredigion.gov.uk
Clackmannanshire Council,http://www.clacksweb.org.uk,Greenfield,,Alloa,,Clackmannanshire,FK10 2AD,,01259 450 000,01259 452 230,contactcentre@clacks.gov.uk
Coleraine Borough Council,http://www.colerainebc.gov.uk/,Cloonavin,66 Portstewart Road,Coleraine,,Northern Ireland,BT52 1EY,,028 7034 7034,028 7034 7026,info@colerainebc.gov.uk
Conwy County Borough Council,http://www.conwy.gov.uk/,Bodlondeb,,Conwy,,North Wales,LL32 8DU,Switchboard,01492 574 000,01492 592 114,information@conwy.gov.uk
Cookstown District Council,http://www.cookstown.gov.uk/,Burn Road,,Cookstown,,County Tyrone,BT80 8DT,,028 8676 2205,028 8676 4360,info@cookstown.gov.uk
Craigavon Borough Council,http://www.craigavon.gov.uk,Civic Centre,PO Box 66,Lakeview Road,Craigavon,Co Armagh,BT64 1AL,,028 3831 2400,028 3831 2444,info@craigavon.gov.uk
Denbighshire County Council,http://www.denbighshire.gov.uk,County Hall,Wynnstay Road,Ruthin,,Denbighshire,LL15 1YN,Switchboard,01824 706 000,01824 706180,customerservice@denbighshire.gov.uk
Derry City Council,http://www.derrycity.gov.uk,98 Strand Road,,,Derry,,BT48 7NN,,028 7136 5151,028 7126 4858,info@derrycity.gov.uk
Down District Council,http://www.downdc.gov.uk,24 Strangford Road,,Downpatrick,,County Down,BT30 6SR,,028 4461 0800,028 4461 0801,council@downdc.gov.uk
Dumfries and Galloway Council,http://www.dumgal.gov.uk,Council Offices,English Street,Dumfries,,,DG1 2DD,,0303 333 3000,01387 260 034,
Dundee City Council,http://www.dundeecity.gov.uk,21 City Square,,,Dundee,,DD1 3DB,Reception,01382 434 000    ,01382 434 104,customerservices@dundeecity.gov.uk
Dungannon and South Tyrone Borough Council,http://www.dungannon.gov.uk/,Council Offices,Circular Road,Dungannon,,County Tyrone,BT71 6DT,,028 8772 0300,028 8772 0368,info@dungannon.gov.uk
East Ayrshire Council,http://www.east-ayrshire.gov.uk,Council Headquarters,London Road,Kilmarnock,,,KA3 7BU,Switchboard &#40;24 hours&#41;,0845 724 0000,,
East Dunbartonshire Council,http://www.eastdunbarton.gov.uk,12 Strathkelvin Place,,Kirkintilloch,,,G66 1TJ,,0141 1234510,0141 777 8576,contact.centre@eastdunbarton.gov.uk
East Lothian Council,http://www.eastlothian.gov.uk,John Muir House,,Haddington,,East Lothian,EH41 3HA,,01620 827 827,01620 827 888,customerservices@eastlothian.gov.uk
East Renfrewshire Council,http://www.eastrenfrewshire.gov.uk,Council Headquarters,Eastwood Park,Rouken Glen Road,Giffnock,,G46 6UG,Switchboard,01415 773 000,,customer.services@eastrenfrewshire.gov.uk
Edinburgh City Council,http://www.edinburgh.gov.uk,City Chambers,High Street,,Edinburgh,,EH1 1YJ,Switchboard,0131 200 2000,,justask@edinburgh.gov.uk
Falkirk Council,http://www.falkirk.gov.uk,Municipal Buildings,,Falkirk,,,FK1 5RS,General enquires,01324 506 070,01324 506 061,contact.centre@falkirk.gov.uk
Fermanagh District Council,http://www.fermanagh.gov.uk,Townhall,2 Townhall Street,Enniskillen,,County Fermanagh,BT74 7BA,,028 6632 5050     ,028 6632 2024,fdc@fermanagh.gov.uk
Fife Council,http://www.fifedirect.org.uk,Fife House,North Street,Glenrothes,,Fife,KY7 5LT,General enquires,08451 550 000,01592 414 242,fife.council@fife.gov.uk
Flintshire County Council,http://www.flintshire.gov.uk,County Hall,,Mold,,Flintshire,CH7 6NB,,01352 752 121,,info@flintshire.gov.uk
Glasgow City Council,http://www.glasgow.gov.uk,City Chambers,George Square,,Glasgow,,G2 1DU,Switchboard,0141 287 2000,,
Gwynedd County Council,http://www.gwynedd.gov.uk,Council Offices,Shirehall Street,Caernafon,,Gwynedd,LL55 1SH,Switchboard,01766 771 000,01286 673 993,
The Highland Council,http://www.highland.gov.uk,Glenurquhart Road,,,Inverness,,IV3 5NX,Switchboard,01349 886606,01463 702 111,service.point@highland.gov.uk
Inverclyde Council,http://www.inverclyde.gov.uk,Municipal Buildings,Clyde Square,Greenock,,Inverclyde,PA15 1LY,,01475 717 171,01475 712 010,
Larne Borough Council,http://www.larne.gov.uk/,Smiley Buildings,Victoria Road,Larne,,County Antrim,BT40 1RU,,028 2827 2313,028 2826 0660,admin@larne.gov.uk
Limavady Borough Council,http://www.limavady.gov.uk,7 Connell Street,,Limavady,,County Londonderry,BT49 0HA,General enquiries,028 7772 2226,028 7772 2010,info@limavady.gov.uk
Lisburn City Council,http://www.lisburncity.gov.uk,Lagan Valley Island,Island Civic Centre,The Island,Lisburn,County Antrim,BT27 4RL,,028 9250 9250,028 9250 9288,enquiries@lisburn.gov.uk
Magherafelt District Council,http://www.magherafelt.gov.uk,50 Ballyronan Road,,Magherafelt,,,BT45 6EN,Switchboard,028 7939 7979,028 7939 7980,info@magherafelt.gov.uk
Merthyr Tydfil County Borough Council,http://www.merthyr.gov.uk,Civic Centre,Castle Street,,Merthyr Tydfil,,CF47 8AN,Switchboard and out of hours emergency,01685 725 000,,customer.care@merthyr.gov.uk
Midlothian Council,http://www.midlothian.gov.uk,Midlothian House,Buccleuch Street,Dalkeith,,,EH22 1DN,,0131 270 7500,0131 271 3050,enquiries@midlothian.gov.uk
Monmouthshire County Council,http://www.monmouthshire.gov.uk,County Hall,The Rhadyr,Usk,,Monmouthshire,,,01633 644 644,01633 644 666,contact@monmouthshire.gov.uk
Moray Council,http://www.moray.gov.uk,Council Office,High Street,Elgin,,Moray,IV30 1BX,Switchboard,01343 543 451,,
Moyle District Council,http://www.moyle-council.org,Sheskburn House,7 Mary Street,Ballycastle,,County Antrim,BT54 6QH,,028 2076 2225,028 2076 2515,info@moyle-council.org
Neath Port Talbot County Borough Council,http://www.neath-porttalbot.gov.uk,Port Talbot Civic Centre,,Port Talbot,,,SA13 1PJ,General enquiries and out of hours emergencies,01639 68 68 68,01639 763 444,fcs@npt.gov.uk
Newport City Council,http://www.newport.gov.uk,Civic Centre,,,Newport,South Wales,NP20 4UR,Contact Centre,01633 656 656,01633 244 721,info@newport.gov.uk
North Ayrshire Council,http://www.north-ayrshire.gov.uk,Cunninghame House,,Irvine,,,KA12 8EE,,01294 310000,01294 324 144,contactus@north-ayrshire.gov.uk
North Down Borough Council,http://www.northdown.gov.uk,Town Hall,The Castle,Bangor,,County Down,BT20 4BT,,028 9127 0371,028 9127 1370,
Omagh District Council,http://www.omagh.gov.uk,The Grange,Mountjoy Road,Omagh,,County Tyrone,BT79 7BL,,028 8224 5321,028 8224 3888,info@omagh.gov.uk
Orkney Islands Council,http://www.orkney.gov.uk/,School Place,Kirkwall,,,Orkney,KW15 1NY,Customer services,01856 873 535,01856 874 615,customerservice@orkney.gov.uk
Pembrokeshire County Council,http://www.pembrokeshire.gov.uk,County Hall,,Haverfordwest,,Pembrokeshire,SA61 1TP,Contact Centre,01437 764 551,01437 775 303,enquiries@pembrokeshire.gov.uk
Perth and Kinross Council,http://www.pkc.gov.uk,2 High Street,,Perth,,,PH1 5PH,Customer services,01738 475 000,01738 475 497,enquiries@pkc.gov.uk
Powys County Council,http://www.powys.gov.uk,County Hall,Spa Road East,Llandrindod Wells,,Powys,LD1 5LG,General enquiries,0845 602 7030,,customer@powys.gov.uk
Renfrewshire Council,http://www.renfrewshire.gov.uk,North Building,Cotton Street,Paisley,,,PA1 1BU,Switchboard,01418 425 000,01418 425 190,
Rhondda Cynon Taf County Borough Council,http://www.rctcbc.gov.uk,Headquarters,"The Pavilions, Cambrian Park",Clydach Vale,Tonypandy,,CF40 2XX,General enquiries,01443 425005,,
Shetland Islands Council,http://www.shetland.gov.uk,Town Hall,Upper Hillhead,Lerwick,,Shetland,ZE1 0HB,,01595 693 535,01595 744 509,info@shetland.gov.uk
South Ayrshire Council,http://www.south-ayrshire.gov.uk,County Buildings,Wellington Square,Ayr,,,KA7 1DR,Customer services,0300 123 0900,01292 612 143,cst@south-ayrshire.gov.uk
South Lanarkshire Council,http://www.southlanarkshire.gov.uk,Council Offices,Almada Street,Hamilton,,,ML3 0AA,Customer services centre,0845 740 6080,,customer.services@southlanarkshire.gov.uk
Stirling Council,http://www.stirling.gov.uk,Viewforth,,Stirling,,,FK8 2ET,,0845 277 7000,01786 443 189,info@stirling.gov.uk
Strabane District Council,http://www.strabanedc.org.uk,47 Derry Road,,Strabane,,County Tyrone,BT82 8DY,,028 7138 2204,028 7138 1348,info@strabanedc.com
Torfaen County Borough Council,http://www.torfaen.gov.uk,Civic Centre,,Pontypool,,Torfaen,NP4 6YB,,01495 762 200,01495 755 513,your.call@torfaen.gov.uk
Vale of Glamorgan Council,http://www.valeofglamorgan.gov.uk,Civic Offices,Holton Road,Barry,,,CF63 4RU,Contact Centre,01446 700 111,,
Western Isles Council,http://www.cne-siar.gov.uk,Sandwick Road,,Stornoway,,Isle of Lewis,HS1 2BW,,0845 600 70 90,,enquiries@cne-siar.gov.uk
West Dunbartonshire Council,http://www.west-dunbarton.gov.uk,Garshake Road,,Dumbarton,,,G82 3PU,Customer Contact Centre,01389 738282,,contact.centre@west-dunbarton.gov.uk
West Lothian Council,http://www.westlothian.gov.uk,West Lothian Civic Centre,Howden South Road,Livingston,,West Lothian,EH54 6FF,Customer Services,01506 280000,,customer.service@westlothian.gov.uk
Wrexham County Borough Council,http://www.wrexham.gov.uk/,The Guildhall,,Wrexham,,Wrexham,LL11 1AY,,01978 292 000,,Contact-Us@wrexham.gov.uk
North Lanarkshire Council,http://www.northlanarkshire.gov.uk,Civic Centre,Windmillhill Street,Motherwell,,,ML1 1AB,General enquires,01698 403 200,,
Scottish Borders Council,http://www.scotborders.gov.uk,Council Headquarters,Newtown St. Boswells,Melrose,,,TD6 0SA,Customer services,0300 100 1800,,enquiries@scotborders.gov.uk
Blaenau Gwent County Borough Council,http://www.blaenau-gwent.gov.uk/,Civic Centre,,Ebbw Vale,,Blaenau Gwent,NP23 6XB,Main switchboard,01495 350 555,,info@blaenau-gwent.gov.uk
The City and County of Swansea Council,http://www.swansea.gov.uk,Civic Centre,Oystermouth Road,,Swansea,,SA1 3SN,,01792 636000,,
Newtownabbey Borough Council,http://www.newtownabbey.gov.uk,Mossley Mill,,Newtownabbey,,County Antrim,BT36 5QA,,028 9034 0000,028 9034 0200,info@newtownabbey.gov.uk.
Newry and Mourne District Council,http://www.newryandmournedc.gov.uk,Monaghan Row,,Newry,,,BT35 8DJ,Switchboard,028 3031 3031,028 3031 3077,administration@newryandmourne.gov.uk
