<?xml version="1.0" encoding="utf-8"?>
<!-- Generator: Adobe Illustrator 21.0.0, SVG Export Plug-In . SVG Version: 6.00 Build 0)  -->
<svg version="1.1" id="Layer_1" xmlns="http://www.w3.org/2000/svg" xmlns:xlink="http://www.w3.org/1999/xlink" x="0px" y="0px"
	 viewBox="0 0 400 400" enable-background="new 0 0 400 400" xml:space="preserve">
<g>
	<defs>
		<rect id="SVGID_1_" width="400" height="400"/>
	</defs>
	<clipPath id="SVGID_2_">
		<use xlink:href="#SVGID_1_"  overflow="visible"/>
	</clipPath>
	<path clip-path="url(#SVGID_2_)" fill="#E41C73" d="M200,400c110.5,0,200-89.5,200-200S310.5,0,200,0S0,89.5,0,200
		S89.5,400,200,400"/>
</g>
<g>
	<defs>
		<circle id="SVGID_3_" cx="200" cy="200" r="200"/>
	</defs>
	<clipPath id="SVGID_4_">
		<use xlink:href="#SVGID_3_"  overflow="visible"/>
	</clipPath>
	<polygon clip-path="url(#SVGID_4_)" fill="#A21A5C" points="82.9,252.1 249.8,419.1 440,369.5 424.4,228.2 297.9,101.7 131,247 	
		"/>
</g>
<g>
	<defs>
		<rect id="SVGID_5_" width="400" height="400"/>
	</defs>
	<clipPath id="SVGID_6_">
		<use xlink:href="#SVGID_5_"  overflow="visible"/>
	</clipPath>
	<path clip-path="url(#SVGID_6_)" fill="#FFFFFF" d="M113.9,255c0,0-14.1,14.1,0,28.3l3.3,3.3c0,0,14.1,14.1,28.3,0L300,132
		c0,0,14.1-14.1,0-28.3l-3.3-3.3c0,0-14.1-14.1-28.3,0L113.9,255z"/>
	<path clip-path="url(#SVGID_6_)" fill="#FFFFFF" d="M185.2,199.8c0,0-9.3,8.6-18.2-0.4l-69.2-69.2c0,0-8.9-8.9,0-17.8
		c0,0,7.2-7.2,11.2-11.2c4-4,123.7,39.4,123.7,39.4s11.9,4.3,2.6,12.9L185.2,199.8z"/>
	<path clip-path="url(#SVGID_6_)" fill="#FFFFFF" d="M199.9,215.3c0,0-8.6,9.3,0.4,18.2l69.2,69.2c0,0,8.9,8.9,17.8,0
		c0,0,7.2-7.2,11.2-11.2c4-4-39.4-123.7-39.4-123.7s-4.3-11.9-12.9-2.6L199.9,215.3z"/>
	<path clip-path="url(#SVGID_6_)" fill="#FFFFFF" d="M118.7,278.7c0,0-5.1,4.7-10-0.2l-38.1-38.1c0,0-4.9-4.9,0-9.8c0,0,4-4,6.2-6.2
		c2.2-2.2,68.1,21.7,68.1,21.7s6.5,2.4,1.4,7.1L118.7,278.7z"/>
	<path clip-path="url(#SVGID_6_)" fill="#FFFFFF" d="M123.4,282.8c0,0-4.7,5.1,0.2,10l38.1,38.1c0,0,4.9,4.9,9.8,0c0,0,4-4,6.2-6.2
		c2.2-2.2-21.7-68.1-21.7-68.1s-2.4-6.5-7.1-1.4L123.4,282.8z"/>
</g>
</svg>
