<?xml version="1.0" encoding="utf-8"?>
<!-- Generator: Adobe Illustrator 21.0.0, SVG Export Plug-In . SVG Version: 6.00 Build 0)  -->
<svg version="1.1" id="Layer_1" xmlns="http://www.w3.org/2000/svg" xmlns:xlink="http://www.w3.org/1999/xlink" x="0px" y="0px"
	 viewBox="0 0 400 400" enable-background="new 0 0 400 400" xml:space="preserve">
<g>
	<defs>
		<rect id="SVGID_1_" width="400" height="400"/>
	</defs>
	<clipPath id="SVGID_2_">
		<use xlink:href="#SVGID_1_"  overflow="visible"/>
	</clipPath>
	<g clip-path="url(#SVGID_2_)">
		<defs>
			<rect id="SVGID_3_" width="400" height="400"/>
		</defs>
		<clipPath id="SVGID_4_">
			<use xlink:href="#SVGID_3_"  overflow="visible"/>
		</clipPath>
		<path clip-path="url(#SVGID_4_)" fill="#E41C73" d="M200,400c110.5,0,200-89.5,200-200S310.5,0,200,0S0,89.5,0,200
			S89.5,400,200,400"/>
	</g>
	<g clip-path="url(#SVGID_2_)">
		<defs>
			<circle id="SVGID_5_" cx="200" cy="200" r="200"/>
		</defs>
		<clipPath id="SVGID_6_">
			<use xlink:href="#SVGID_5_"  overflow="visible"/>
		</clipPath>
		<g opacity="0.3" clip-path="url(#SVGID_6_)">
			<g>
				<defs>
					<rect id="SVGID_7_" x="89.3" y="97.3" width="362.9" height="366.2"/>
				</defs>
				<clipPath id="SVGID_8_">
					<use xlink:href="#SVGID_7_"  overflow="visible"/>
				</clipPath>
				<polygon clip-path="url(#SVGID_8_)" fill="#3C3C3B" points="98.3,278.1 282.7,462.5 443.2,252.8 301.2,104.3 260,131 
					252.3,154.1 108,159.6 				"/>
			</g>
		</g>
	</g>
	<g clip-path="url(#SVGID_2_)">
		<defs>
			<rect id="SVGID_9_" width="400" height="400"/>
		</defs>
		<clipPath id="SVGID_10_">
			<use xlink:href="#SVGID_9_"  overflow="visible"/>
		</clipPath>
		<path clip-path="url(#SVGID_10_)" fill="#FFFFFF" d="M288.3,99.7c0,0,15.6,0,15.6,15.6v166.9c0,0,0,15.6-15.6,15.6H115.5
			c0,0-15.6,0-15.6-15.6V115.3c0,0,0-15.6,15.6-15.6H288.3z"/>
		<path clip-path="url(#SVGID_10_)" fill="#AB306C" d="M229.8,151.8c-7-5.8-17.3-8.7-30.8-8.7h-35.6v111.4H187v-39.6h10.1
			c13.8,0,24.5-3.2,32-9.5c7.5-6.3,11.2-15.5,11.2-27.5C240.4,166.3,236.8,157.6,229.8,151.8 M187,162.4h10.7c6.4,0,11.2,1.3,14.2,4
			c3,2.6,4.5,6.7,4.5,12.3c0,5.5-1.8,9.7-5.4,12.5c-3.6,2.9-9,4.3-16.3,4.3H187V162.4z"/>
	</g>
</g>
</svg>
