<?xml version="1.0" encoding="utf-8"?>
<!-- Generator: Adobe Illustrator 20.1.0, SVG Export Plug-In . SVG Version: 6.00 Build 0)  -->
<svg version="1.1" id="Layer_1" xmlns="http://www.w3.org/2000/svg" xmlns:xlink="http://www.w3.org/1999/xlink" x="0px" y="0px"
	 viewBox="0 0 400 400" style="enable-background:new 0 0 400 400;" xml:space="preserve">
<style type="text/css">
	.st0{clip-path:url(#SVGID_2_);fill:#E41C73;}
	.st1{clip-path:url(#SVGID_4_);fill:#A21A5C;}
	.st2{clip-path:url(#SVGID_6_);fill:#FFFFFF;}
	.st3{clip-path:url(#SVGID_6_);fill:none;stroke:#FFFFFF;stroke-width:15;}
	.st4{clip-path:url(#SVGID_6_);fill:none;stroke:#FFFFFF;stroke-width:21;}
	.st5{clip-path:url(#SVGID_6_);fill:none;stroke:#FFFFFF;stroke-width:29;}
</style>
<g>
	<defs>
		<rect id="SVGID_1_" x="0.2" y="0.2" width="399.6" height="399.6"/>
	</defs>
	<clipPath id="SVGID_2_">
		<use xlink:href="#SVGID_1_"  style="overflow:visible;"/>
	</clipPath>
	<path class="st0" d="M200,399.8c110.3,0,199.8-89.4,199.8-199.8C399.8,89.7,310.3,0.2,200,0.2S0.2,89.7,0.2,200
		C0.2,310.3,89.7,399.8,200,399.8"/>
</g>
<g>
	<defs>
		<circle id="SVGID_3_" cx="200" cy="200" r="199.8"/>
	</defs>
	<clipPath id="SVGID_4_">
		<use xlink:href="#SVGID_3_"  style="overflow:visible;"/>
	</clipPath>
	<polygon class="st1" points="180.4,287.4 300.4,407.5 410.3,343.3 489.6,315.7 323.5,149.7 255,126.8 225,107.9 172.1,113 
		70.1,156.3 188.8,273.2 195.8,270 190.8,277 	"/>
</g>
<g>
	<defs>
		<rect id="SVGID_5_" x="0.2" y="0.2" width="399.6" height="399.6"/>
	</defs>
	<clipPath id="SVGID_6_">
		<use xlink:href="#SVGID_5_"  style="overflow:visible;"/>
	</clipPath>
	<path class="st2" d="M199,295.8c12.5,0,22.6-10.1,22.6-22.6c0-12.5-10.1-22.6-22.6-22.6c-12.5,0-22.6,10.1-22.6,22.6
		C176.3,285.7,186.5,295.8,199,295.8"/>
	<path class="st3" d="M240.8,242.5c-10.6-10.8-25.4-17.6-41.8-17.6c-16.5,0-31.3,6.8-41.9,17.8"/>
	<path class="st3" d="M261.3,219.5c-15.8-16.1-37.8-26.1-62.2-26.1c-24.5,0-46.6,10.1-62.4,26.4"/>
	<path class="st4" d="M287.2,194.9c-22.4-22.9-53.6-37-88.1-37c-34.7,0-66.1,14.4-88.5,37.4"/>
	<path class="st5" d="M318,164.2c-30.1-30.8-72.2-49.9-118.7-49.9c-46.8,0-89,19.3-119.2,50.5"/>
</g>
</svg>
