<?xml version="1.0" encoding="utf-8"?>
<!-- Generator: Adobe Illustrator 20.1.0, SVG Export Plug-In . SVG Version: 6.00 Build 0)  -->
<svg version="1.1" id="Layer_1" xmlns="http://www.w3.org/2000/svg" xmlns:xlink="http://www.w3.org/1999/xlink" x="0px" y="0px"
	 viewBox="0 0 400 400" style="enable-background:new 0 0 400 400;" xml:space="preserve">
<style type="text/css">
	.st0{clip-path:url(#SVGID_2_);fill:#E41C73;}
	.st1{clip-path:url(#SVGID_4_);fill:#A21A5C;}
	.st2{clip-path:url(#SVGID_6_);fill:#A21A5C;}
	.st3{clip-path:url(#SVGID_6_);fill:none;stroke:#FFFFFF;stroke-width:7;}
	.st4{fill:#FFFFFF;}
	.st5{clip-path:url(#SVGID_8_);fill:#A21A5C;}
	.st6{fill:none;stroke:#AB306C;stroke-width:4;stroke-linecap:round;}
</style>
<g>
	<defs>
		<rect id="SVGID_1_" width="400" height="400"/>
	</defs>
	<clipPath id="SVGID_2_">
		<use xlink:href="#SVGID_1_"  style="overflow:visible;"/>
	</clipPath>
	<path class="st0" d="M200,400c110.5,0,200-89.5,200-200S310.5,0,200,0S0,89.5,0,200S89.5,400,200,400"/>
</g>
<g>
	<defs>
		<circle id="SVGID_3_" cx="200" cy="200" r="200"/>
	</defs>
	<clipPath id="SVGID_4_">
		<use xlink:href="#SVGID_3_"  style="overflow:visible;"/>
	</clipPath>
	<polygon class="st1" points="133.9,294.9 254,415 428,344 409,223 262.4,76.4 270,288 	"/>
</g>
<g>
	<defs>
		<rect id="SVGID_5_" width="400" height="400"/>
	</defs>
	<clipPath id="SVGID_6_">
		<use xlink:href="#SVGID_5_"  style="overflow:visible;"/>
	</clipPath>
	<path class="st2" d="M145.7,76.7c0,0-9.4,0-9.4,9.4v203.2c0,0,0,9.4,9.4,9.4H255c0,0,9.4,0,9.4-9.4V86.1c0,0,0-9.4-9.4-9.4H145.7z"
		/>
	<path class="st3" d="M145.7,76.7c0,0-9.4,0-9.4,9.4v203.2c0,0,0,9.4,9.4,9.4H255c0,0,9.4,0,9.4-9.4V86.1c0,0,0-9.4-9.4-9.4H145.7z"
		/>
</g>
<rect x="137.3" y="267" class="st4" width="125.8" height="29.2"/>
<rect x="137.3" y="79.4" class="st4" width="125.8" height="17.1"/>
<g>
	<defs>
		<rect id="SVGID_7_" width="400" height="400"/>
	</defs>
	<clipPath id="SVGID_8_">
		<use xlink:href="#SVGID_7_"  style="overflow:visible;"/>
	</clipPath>
	<path class="st5" d="M194.8,275.1c0,0-4,0-4,4v11.5c0,0,0,4,4,4h11.5c0,0,4,0,4-4v-11.5c0,0,0-4-4-4H194.8z"/>
</g>
<line class="st6" x1="190" y1="84" x2="209" y2="84"/>
</svg>
