<?xml version="1.0" encoding="utf-8"?>
<!-- Generator: Adobe Illustrator 20.1.0, SVG Export Plug-In . SVG Version: 6.00 Build 0)  -->
<svg version="1.1" id="Layer_1" xmlns="http://www.w3.org/2000/svg" xmlns:xlink="http://www.w3.org/1999/xlink" x="0px" y="0px"
	 viewBox="0 0 400 400" style="enable-background:new 0 0 400 400;" xml:space="preserve">
<style type="text/css">
	.st0{clip-path:url(#SVGID_2_);fill:#E41C73;}
	.st1{clip-path:url(#SVGID_4_);fill:#A21A5C;}
	.st2{clip-path:url(#SVGID_6_);fill:#A21A5C;}
	.st3{clip-path:url(#SVGID_6_);fill:none;stroke:#FFFFFF;stroke-width:10;}
	.st4{clip-path:url(#SVGID_6_);fill:#FFFFFF;}
</style>
<g>
	<defs>
		<rect id="SVGID_1_" width="400" height="400"/>
	</defs>
	<clipPath id="SVGID_2_">
		<use xlink:href="#SVGID_1_"  style="overflow:visible;"/>
	</clipPath>
	<path class="st0" d="M200,400c110.5,0,200-89.5,200-200S310.5,0,200,0S0,89.5,0,200S89.5,400,200,400"/>
</g>
<g>
	<defs>
		<circle id="SVGID_3_" cx="200" cy="200" r="200"/>
	</defs>
	<clipPath id="SVGID_4_">
		<use xlink:href="#SVGID_3_"  style="overflow:visible;"/>
	</clipPath>
	<polygon class="st1" points="87.6,269.6 236,418 428,344 461,269.3 314.4,122.7 248,253 	"/>
</g>
<g>
	<defs>
		<rect id="SVGID_5_" width="400" height="400"/>
	</defs>
	<clipPath id="SVGID_6_">
		<use xlink:href="#SVGID_5_"  style="overflow:visible;"/>
	</clipPath>
	<path class="st2" d="M314.6,129.5c0,0,0-4-4-4H90.2c0,0-4,0-4,4v134c0,0,0,4,4,4h220.4c0,0,4,0,4-4V129.5z"/>
	<path class="st3" d="M314.6,129.5c0,0,0-4-4-4H90.2c0,0-4,0-4,4v134c0,0,0,4,4,4h220.4c0,0,4,0,4-4V129.5z"/>
	<path class="st4" d="M191.3,170c0,0-10.3-6.2-10.2,5.8l0.2,41.5c0,0,0.1,12,10.3,5.8l33.4-20.3c0,0,10.3-6.2,0-12.4L191.3,170z"/>
	<path class="st4" d="M149.4,282.1c0,0-6,0-6,6v9.6h114v-9.6c0,0,0-6-6-6H149.4z"/>
	<path class="st4" d="M191,266c0,0-7,0-7,7v9.8h32.8V273c0,0,0-7-7-7H191z"/>
</g>
</svg>
