<?xml version="1.0" encoding="utf-8"?>
<!-- Generator: Adobe Illustrator 21.0.0, SVG Export Plug-In . SVG Version: 6.00 Build 0)  -->
<svg version="1.1" id="Layer_1" xmlns="http://www.w3.org/2000/svg" xmlns:xlink="http://www.w3.org/1999/xlink" x="0px" y="0px"
	 viewBox="0 0 400 400" enable-background="new 0 0 400 400" xml:space="preserve">
<g>
	<g>
		<path fill="#FFFFFF" stroke="#FFFFFF" stroke-width="3" stroke-miterlimit="10" d="M200,398.1C90.8,398.1,1.9,309.2,1.9,200
			S90.8,1.9,200,1.9S398.1,90.8,398.1,200S309.2,398.1,200,398.1z M200,3C91.4,3,3,91.4,3,200s88.4,197,197,197s197-88.4,197-197
			S308.6,3,200,3z"/>
	</g>
	<g>
		<path fill="#FFFFFF" d="M138.4,143.9c0,0-17.3,0-17.3,17.3v78.9c0,0,0,17.3,17.3,17.3h130.5c0,0,17.3,0,17.3-17.3v-78.9
			c0,0,0-17.3-17.3-17.3L138.4,143.9L138.4,143.9z"/>
	</g>
</g>
<g>
	<polygon fill="#FFFFFF" points="147.6,254.4 147.6,292.5 150.9,292.5 194.5,249.4 	"/>
</g>
</svg>
