<?xml version="1.0" encoding="utf-8"?>
<!-- Generator: Adobe Illustrator 21.0.0, SVG Export Plug-In . SVG Version: 6.00 Build 0)  -->
<svg version="1.1" id="Layer_1" xmlns="http://www.w3.org/2000/svg" xmlns:xlink="http://www.w3.org/1999/xlink" x="0px" y="0px"
	 viewBox="0 0 400 400" enable-background="new 0 0 400 400" xml:space="preserve">
<g>
	<defs>
		<rect id="SVGID_1_" x="-0.4" y="0.3" width="400" height="400"/>
	</defs>
	<clipPath id="SVGID_2_">
		<use xlink:href="#SVGID_1_"  overflow="visible"/>
	</clipPath>
	<path clip-path="url(#SVGID_2_)" fill="#A6A8AB" d="M199.6,400.3c110.5,0,200-89.5,200-200s-89.5-200-200-200s-200,89.5-200,200
		S89.1,400.3,199.6,400.3"/>
</g>
<g>
	<defs>
		<circle id="SVGID_3_" cx="199.6" cy="200.3" r="200"/>
	</defs>
	<clipPath id="SVGID_4_">
		<use xlink:href="#SVGID_3_"  overflow="visible"/>
	</clipPath>
	<polygon clip-path="url(#SVGID_4_)" fill="#8D8E90" points="104.1,303.8 271.1,470.8 439.5,369.9 473.9,282.6 278.4,87.1 
		253.2,121.9 199.3,86.4 81.6,197.4 104.6,219.3 	"/>
</g>
<g>
	<defs>
		<rect id="SVGID_5_" x="-0.4" y="0.3" width="400" height="400"/>
	</defs>
	<clipPath id="SVGID_6_">
		<use xlink:href="#SVGID_5_"  overflow="visible"/>
	</clipPath>
	<path clip-path="url(#SVGID_6_)" fill="#FFFFFF" d="M297.9,214.7v76.7c0,0,0,20-20.4,20H121.1c0,0-20.4,0-20.4-20v-76.7l96.6-98
		L297.9,214.7z"/>
	<path clip-path="url(#SVGID_6_)" fill="#FFFFFF" d="M212.9,85c0,0,5.7-5.7,0-11.3l-8.7-8.7c0,0-5.7-5.7-11.3,0L76.2,181.7
		c0,0-5.7,5.7,0,11.3l8.7,8.7c0,0,5.7,5.7,11.3,0L212.9,85z"/>
	<path clip-path="url(#SVGID_6_)" fill="#FFFFFF" d="M184.6,85c0,0-5.7-5.7,0-11.3l8.7-8.7c0,0,5.7-5.7,11.3,0l116.7,116.7
		c0,0,5.7,5.7,0,11.3l-8.7,8.7c0,0-5.7,5.7-11.3,0L184.6,85z"/>
	<path clip-path="url(#SVGID_6_)" fill="#FFFFFF" d="M253,94.4c0,0,0-8,8-8h12.3c0,0,8,0,8,8V139c0,0,0,8-8,8H261c0,0-8,0-8-8V94.4z
		"/>
	<path clip-path="url(#SVGID_6_)" fill="#8D8E90" d="M143.2,210.3c0,0-6.2,0-6.2,6.2v30c0,0,0,6.2,6.2,6.2h34c0,0,6.2,0,6.2-6.2v-30
		c0,0,0-6.2-6.2-6.2H143.2z"/>
	<path clip-path="url(#SVGID_6_)" fill="#8D8E90" d="M222.5,210.3c0,0-6.2,0-6.2,6.2v92.6c0,0,0,6.2,6.2,6.2h34c0,0,6.2,0,6.2-6.2
		v-92.6c0,0,0-6.2-6.2-6.2H222.5z"/>
</g>
</svg>
