<?xml version="1.0" encoding="utf-8"?>
<!-- Generator: Adobe Illustrator 21.0.0, SVG Export Plug-In . SVG Version: 6.00 Build 0)  -->
<svg version="1.1" xmlns="http://www.w3.org/2000/svg" xmlns:xlink="http://www.w3.org/1999/xlink" x="0px" y="0px"
	 viewBox="0 0 400 400" enable-background="new 0 0 400 400" xml:space="preserve">
<g id="Layer_1" display="none">
	<g display="inline">
		<g>
			<path fill="#E61B72" stroke="#E61B72" stroke-width="3" stroke-miterlimit="10" d="M200,398.1C90.8,398.1,1.9,309.2,1.9,200
				S90.8,1.9,200,1.9S398.1,90.8,398.1,200S309.2,398.1,200,398.1z M200,3C91.4,3,3,91.4,3,200s88.4,197,197,197s197-88.4,197-197
				S308.6,3,200,3z"/>
		</g>
	</g>
	<g>
		<path display="inline" fill="#E61B72" d="M248,232.9l-47.9,15l-1.2,0.4l1,58.3l-48.1-73.6l48.2-14.3l-0.2-59.3l0.3,0.4L248,232.9z
			 M275.1,229.6c0-80.4-71.9-136.2-75-136.2v30.3c-4.3,0-75.2,41.7-75.2,105.5c0,48.7,42.9,77.3,75.2,77.3
			C241.8,306.6,275.1,270.7,275.1,229.6"/>
	</g>
	<path fill="#E61B72" d="M200.1,101c-58.3,0-105.5,47.2-105.5,105.5h0.1c0.4-10.4,16-18.8,35.2-18.8c18.8,0,34,8,35.1,18.1
		c1-9.2,13.7-16.6,30.1-17.9v83.5c0,9.2,3,17,8.6,22.5c5,4.9,11.8,7.7,19,7.7c13.7,0,27.6-10.4,27.6-30.2c0-1.8-1.5-3.3-3.3-3.3
		s-3.3,1.5-3.3,3.3c0,16.3-10.9,23.7-21,23.7c-10.1,0-21-7.4-21-23.7v-83.7c18.5,0.4,33.3,8.6,33.7,18.7h0.2
		c0.4-10.4,16-18.8,35.2-18.8c17.6,0,32,7,34.7,16.1C304,146.8,257.4,101,200.1,101z"/>
	<g display="inline">
		<path fill="#E61B72" d="M199.1,103.1c-4.4,0-7.8,1.4-7.8,1.4L114.2,138c-7.4,3.2-7.4,11.3-7.4,11.3v7.7c0,5.4,5.4,5.4,5.4,5.4
			h173.2c8.1,0,8.1-8,8.1-8v-7.7c0-5.4-5-7.4-5-7.4l-82.3-34.7C203.7,103.4,201.3,103.1,199.1,103.1 M200.1,151.8
			c-7,0-12.7-5.7-12.7-12.7c0-7,5.7-12.7,12.7-12.7c7,0,12.7,5.7,12.7,12.7C212.8,146.1,207.1,151.8,200.1,151.8"/>
		<path fill="#E61B72" d="M283.3,257.9H111.5v11.5c0,0,0,3.3,3.3,3.3h168.5c0,0,3.3,0,3.3-3.3v-8.2
			C286.6,261.2,286.6,257.9,283.3,257.9"/>
		<path fill="#E61B72" d="M301.8,278.6H95.1v17.6c0,0,0,3.3,3.3,3.3h203.4c0,0,3.3,0,3.3-3.3v-14.3
			C305.1,281.9,305.1,278.6,301.8,278.6"/>
		<path fill="#E61B72" d="M162.5,169.3H133c-3.7,0-6.7,3-6.7,6.7c0,3.7,3,6.7,6.7,6.7h4.3l-3.8,51.8H133c-3.7,0-6.7,3-6.7,6.7
			c0,3.7,3,6.7,6.7,6.7h29.5c3.7,0,6.7-3,6.7-6.7c0-3.7-3-6.7-6.7-6.7H162l-3.8-51.8h4.3c3.7,0,6.7-3,6.7-6.7
			C169.2,172.3,166.2,169.3,162.5,169.3"/>
		<path fill="#E61B72" d="M214.8,169.3h-29.5c-3.7,0-6.7,3-6.7,6.7c0,3.7,3,6.7,6.7,6.7h4.3l-3.8,51.8h-0.5c-3.7,0-6.7,3-6.7,6.7
			c0,3.7,3,6.7,6.7,6.7h29.5c3.7,0,6.7-3,6.7-6.7c0-3.7-3-6.7-6.7-6.7h-0.5l-3.8-51.8h4.3c3.7,0,6.7-3,6.7-6.7
			C221.6,172.3,218.6,169.3,214.8,169.3"/>
		<path fill="#E61B72" d="M267.2,169.3h-29.5c-3.7,0-6.7,3-6.7,6.7c0,3.7,3,6.7,6.7,6.7h4.3l-3.8,51.8h-0.5c-3.7,0-6.7,3-6.7,6.7
			c0,3.7,3,6.7,6.7,6.7h29.5c3.7,0,6.7-3,6.7-6.7c0-3.7-3-6.7-6.7-6.7h-0.5l-3.8-51.8h4.3c3.7,0,6.7-3,6.7-6.7
			C273.9,172.3,270.9,169.3,267.2,169.3"/>
	</g>
</g>
<g id="White">
	<g>
		<g>
			<path fill="#FFFFFF" stroke="#FFFFFF" stroke-width="3" stroke-miterlimit="10" d="M200,398.1C90.8,398.1,1.9,309.2,1.9,200
				S90.8,1.9,200,1.9S398.1,90.8,398.1,200S309.2,398.1,200,398.1z M200,3C91.4,3,3,91.4,3,200s88.4,197,197,197s197-88.4,197-197
				S308.6,3,200,3z"/>
		</g>
	</g>
	<path display="none" fill="#FFFFFF" d="M200.1,101c-58.3,0-105.5,47.2-105.5,105.5h0.1c0.4-10.4,16-18.8,35.2-18.8
		c18.8,0,34,8,35.1,18.1c1-9.2,13.7-16.6,30.1-17.9v83.5c0,9.2,3,17,8.6,22.5c5,4.9,11.8,7.7,19,7.7c13.7,0,27.6-10.4,27.6-30.2
		c0-1.8-1.5-3.3-3.3-3.3s-3.3,1.5-3.3,3.3c0,16.3-10.9,23.7-21,23.7c-10.1,0-21-7.4-21-23.7v-83.7c18.5,0.4,33.3,8.6,33.7,18.7h0.2
		c0.4-10.4,16-18.8,35.2-18.8c17.6,0,32,7,34.7,16.1C304,146.8,257.4,101,200.1,101z"/>
	<g display="none">
		<path display="inline" fill="#FFFFFF" d="M199.1,103.1c-4.4,0-7.8,1.4-7.8,1.4L114.2,138c-7.4,3.2-7.4,11.3-7.4,11.3v7.7
			c0,5.4,5.4,5.4,5.4,5.4h173.2c8.1,0,8.1-8,8.1-8v-7.7c0-5.4-5-7.4-5-7.4l-82.3-34.7C203.7,103.4,201.3,103.1,199.1,103.1
			 M200.1,151.8c-7,0-12.7-5.7-12.7-12.7c0-7,5.7-12.7,12.7-12.7c7,0,12.7,5.7,12.7,12.7C212.8,146.1,207.1,151.8,200.1,151.8"/>
		<path display="inline" fill="#FFFFFF" d="M283.3,257.9H111.5v11.5c0,0,0,3.3,3.3,3.3h168.5c0,0,3.3,0,3.3-3.3v-8.2
			C286.6,261.2,286.6,257.9,283.3,257.9"/>
		<path display="inline" fill="#FFFFFF" d="M301.8,278.6H95.1v17.6c0,0,0,3.3,3.3,3.3h203.4c0,0,3.3,0,3.3-3.3v-14.3
			C305.1,281.9,305.1,278.6,301.8,278.6"/>
		<path display="inline" fill="#FFFFFF" d="M162.5,169.3H133c-3.7,0-6.7,3-6.7,6.7c0,3.7,3,6.7,6.7,6.7h4.3l-3.8,51.8H133
			c-3.7,0-6.7,3-6.7,6.7c0,3.7,3,6.7,6.7,6.7h29.5c3.7,0,6.7-3,6.7-6.7c0-3.7-3-6.7-6.7-6.7H162l-3.8-51.8h4.3c3.7,0,6.7-3,6.7-6.7
			C169.2,172.3,166.2,169.3,162.5,169.3"/>
		<path display="inline" fill="#FFFFFF" d="M214.8,169.3h-29.5c-3.7,0-6.7,3-6.7,6.7c0,3.7,3,6.7,6.7,6.7h4.3l-3.8,51.8h-0.5
			c-3.7,0-6.7,3-6.7,6.7c0,3.7,3,6.7,6.7,6.7h29.5c3.7,0,6.7-3,6.7-6.7c0-3.7-3-6.7-6.7-6.7h-0.5l-3.8-51.8h4.3c3.7,0,6.7-3,6.7-6.7
			C221.6,172.3,218.6,169.3,214.8,169.3"/>
		<path display="inline" fill="#FFFFFF" d="M267.2,169.3h-29.5c-3.7,0-6.7,3-6.7,6.7c0,3.7,3,6.7,6.7,6.7h4.3l-3.8,51.8h-0.5
			c-3.7,0-6.7,3-6.7,6.7c0,3.7,3,6.7,6.7,6.7h29.5c3.7,0,6.7-3,6.7-6.7c0-3.7-3-6.7-6.7-6.7h-0.5l-3.8-51.8h4.3c3.7,0,6.7-3,6.7-6.7
			C273.9,172.3,270.9,169.3,267.2,169.3"/>
	</g>
	<g>
		<path fill="#8C8F8F" d="M208.1,109.6h-17.3c-1,0-1.8-0.8-1.8-1.8c0-1,0.8-1.8,1.8-1.8h17.3c1,0,1.8,0.8,1.8,1.8
			C209.9,108.8,209.1,109.6,208.1,109.6"/>
		<path fill="#FFFFFF" d="M257.4,276.4H142.6V119.3h114.8V276.4z M200.3,299.9c-4.9,0-8.9-4-8.9-8.9c0-4.9,4-8.9,8.9-8.9
			c4.9,0,8.9,4,8.9,8.9C209.2,295.9,205.2,299.9,200.3,299.9 M250,95.1h-99.7c-4.7,0-13.8,6-13.8,14.6v185.4
			c0,4.7,5.1,11.5,13.8,11.5H250c4.7,0,13.4-2.9,13.4-11.5V109.7C263.4,105,258.7,95.1,250,95.1"/>
		<path fill="#FFFFFF" d="M202.1,217.9c-4.2,0-7.6,3.4-7.6,7.6c0,4.2,3.4,7.6,7.6,7.6c4.2,0,7.6-3.4,7.6-7.6
			C209.7,221.3,206.3,217.9,202.1,217.9"/>
		<path fill="#FFFFFF" d="M186.1,213.4l3.6,3.5c6.5-6.7,18.1-6.7,24.6-0.1l3.6-3.5C209.5,204.7,194.6,204.8,186.1,213.4"/>
		<path fill="#FFFFFF" d="M179.2,205.7l3.6,3.5c5.1-5.3,11.9-8.2,19.2-8.2c7.3,0,14.1,2.9,19.2,8.1l3.6-3.5
			c-6-6.2-14.1-9.6-22.8-9.6C193.4,196,185.3,199.5,179.2,205.7"/>
		<path fill="#FFFFFF" d="M169.7,196.7l5.1,4.9c7.2-7.5,16.9-11.6,27.3-11.6c10.3,0,20,4.1,27.2,11.4l5.1-5
			c-8.6-8.7-20-13.6-32.2-13.6C189.8,183,178.3,187.9,169.7,196.7"/>
		<path fill="#FFFFFF" d="M202.2,176.8c13.9,0,26.8,5.5,36.5,15.4l7-6.8c-11.6-11.8-27-18.3-43.5-18.3c-16.6,0-32.2,6.6-43.7,18.5
			l7,6.8C175.2,182.3,188.2,176.8,202.2,176.8"/>
	</g>
</g>
</svg>
