<?xml version="1.0" encoding="utf-8"?>
<!-- Generator: Adobe Illustrator 21.0.0, SVG Export Plug-In . SVG Version: 6.00 Build 0)  -->
<svg version="1.1" xmlns="http://www.w3.org/2000/svg" xmlns:xlink="http://www.w3.org/1999/xlink" x="0px" y="0px"
	 viewBox="0 0 400 400" enable-background="new 0 0 400 400" xml:space="preserve">
<g id="Layer_1" display="none">
	<g display="inline">
		<g>
			<path fill="#E61B72" stroke="#E61B72" stroke-width="3" stroke-miterlimit="10" d="M200,398.1C90.8,398.1,1.9,309.2,1.9,200
				S90.8,1.9,200,1.9S398.1,90.8,398.1,200S309.2,398.1,200,398.1z M200,3C91.4,3,3,91.4,3,200s88.4,197,197,197s197-88.4,197-197
				S308.6,3,200,3z"/>
		</g>
	</g>
	<g display="inline">
		<path fill="#E61B72" d="M248,232.9l-47.9,15l-1.2,0.4l1,58.3l-48.1-73.6l48.2-14.3l-0.2-59.3l0.3,0.4L248,232.9z M275.1,229.6
			c0-80.4-71.9-136.2-75-136.2v30.3c-4.3,0-75.2,41.7-75.2,105.5c0,48.7,42.9,77.3,75.2,77.3C241.8,306.6,275.1,270.7,275.1,229.6"
			/>
	</g>
</g>
<g id="White">
	<g>
		<g>
			<path fill="#FFFFFF" stroke="#FFFFFF" stroke-width="3" stroke-miterlimit="10" d="M200,398.1C90.8,398.1,1.9,309.2,1.9,200
				S90.8,1.9,200,1.9S398.1,90.8,398.1,200S309.2,398.1,200,398.1z M200,3C91.4,3,3,91.4,3,200s88.4,197,197,197s197-88.4,197-197
				S308.6,3,200,3z"/>
		</g>
	</g>
	<path fill="#FFFFFF" d="M200.1,101c-58.3,0-105.5,47.2-105.5,105.5h0.1c0.4-10.4,16-18.8,35.2-18.8c18.8,0,34,8,35.1,18.1
		c1-9.2,13.7-16.6,30.1-17.9v83.5c0,9.2,3,17,8.6,22.5c5,4.9,11.8,7.7,19,7.7c13.7,0,27.6-10.4,27.6-30.2c0-1.8-1.5-3.3-3.3-3.3
		s-3.3,1.5-3.3,3.3c0,16.3-10.9,23.7-21,23.7c-10.1,0-21-7.4-21-23.7v-83.7c18.5,0.4,33.3,8.6,33.7,18.7h0.2
		c0.4-10.4,16-18.8,35.2-18.8c17.6,0,32,7,34.7,16.1C304,146.8,257.4,101,200.1,101z"/>
</g>
</svg>
